<svg width="1440" height="998" viewBox="0 0 1440 998" fill="none" xmlns="http://www.w3.org/2000/svg">
<g clip-path="url(#clip0_1668_12160)">
<rect width="1440" height="998" fill="#0D0D18"/>
<g opacity="0.04" clip-path="url(#clip1_1668_12160)" filter="url(#filter0_f_1668_12160)">
<g style="mix-blend-mode:overlay">
<path d="M3254.04 -94.1309L2876.57 -233.86L2853.64 -242.356L2836.98 -284.617L2449.2 -396.269L2443.63 -397.874L2069.59 -479.516L2060.04 -481.631L1697.49 -535.779L1693.18 -536.436L1662.02 -571.441L1309.63 -596.892L1270.04 -629.418L934.542 -626.683L887.222 -656.146L571.151 -625.918L516.614 -651.843L222.854 -594.304L161.572 -616.109L95.7691 -636.31L-173.711 -547.885L-245.675 -562.908L-324.857 -574.285L-561.564 -454.21L-645.485 -458.695L-844.788 -307.188L-932.573 -303.506L-1082.3 -121.369L-1085.43 -117.504L-1175.95 -103.976L-1268.15 115.973L-1270.15 120.713L-1291.15 383.616L-1219.19 685.718L-1026.85 1032.52L-798.489 1293.39" stroke="#F2F2F7" stroke-linecap="round" stroke-linejoin="round"/>
<path d="M2853.64 -242.356L2460.5 -359.04L2100.61 -440.427L2081.95 -444.656L1722.97 -500.482L1715.35 -501.649L1693.18 -536.435L1340.48 -564.002L1309.63 -596.892L973.513 -596.127L934.542 -626.683L617.778 -598.241L571.151 -625.917L276.808 -570.055L222.854 -594.303L-45.2417 -510.692L-106.159 -530.856L-173.712 -547.885L-410.674 -433.827L-484.059 -445.276L-561.564 -454.21L-762.325 -305.511L-844.788 -307.188L-994.402 -130.12L-999.068 -124.578L-1093.45 85.8176L-1095.17 89.6828L-1117.7 340.444L-1047.48 628.033L-858.313 956.935L-551.903 1293.39" stroke="#F2F2F7" stroke-linecap="round" stroke-linejoin="round"/>
<path d="M3581.59 237.835L3215.57 59.4178L2837.49 -92.891L2464.62 -213.513L2104.19 -302.74L1759.42 -362.139L1755.34 -362.832L1424.72 -394.409L1112.19 -398.639L824.3 -376.25L562.876 -327.28L335.137 -252.566L145.823 -151.306L3.60912 -24.5945L-83.0096 128.772L-103.315 307.116L-55.4126 472.807L-44.3301 511.167L19.1392 538.332L79.9109 566.591L135.615 594.377L222.562 710.113L296.421 808.419L299.119 812.029L330.799 840.324L404.84 906.579L496.089 988.185L558.538 1044.05L562.767 1047.84L615.153 1082.59L674.722 1122.08L700.095 1138.93L749.894 1171.93L784.198 1194.72L879.202 1257.72L886.602 1262.61L932.974 1293.39" stroke="#F2F2F7" stroke-linecap="round" stroke-linejoin="round"/>
<path d="M688.94 1118.29L615.008 1069.39L609.102 1064.21L550.7 1012.65L537.722 1001.2L532.764 996.827L497.074 965.322L436.849 912.195L351.287 836.678L327.226 805.283L261.643 719.739L187.309 622.746L156.431 546.208L109.148 428.941L106.56 258.145L168.17 110.248L284.828 -12.8532L448.369 -111.779L650.917 -185.254L887.332 -233.75L1150.8 -256.285L1438.51 -252.748L1744.15 -222.41L2066.53 -164.396L2399.15 -78.1962L2741.43 37.7584L3086.23 183.431L3124.76 154.515L3158.49 123.886L3190.38 92.8186L3215.57 59.4178L3237.34 25.0326L3250.13 -12.4521L3257.72 -51.4683L3254.04 -94.1308" stroke="#F2F2F7" stroke-linecap="round" stroke-linejoin="round"/>
<path d="M2472.17 -320.862L2106.88 -405.823L2094.67 -408.667L1736.35 -466.389L1733.58 -466.827L1715.35 -501.649L1367.38 -530.747L1340.48 -564.002L1008.55 -564.95L973.513 -596.127L660.504 -569.691L617.778 -598.242L326.898 -544.604L63.2505 -464.493L-164.707 -358.311L-351.433 -223.905L-486.173 -61.6784L-557.626 130.996L-551.356 353.06L-448.916 606.738L-365.578 618.917L-281.985 634.669L-200.652 651.77L-119.721 671.716L-41.9241 692.355L34.487 715.108L201.527 880.799L287.234 965.869L289.239 967.838L512.239 1126.35L667.759 1236.87L672.243 1240.08L770.418 1293.39" stroke="#F2F2F7" stroke-linecap="round" stroke-linejoin="round"/>
<path d="M3581.59 190.031L3237.34 25.0326L2850.14 -128.297L2473.19 -248.263L2105.1 -337.781L1754.17 -397.217L1752.75 -397.472L1415.14 -429.013L1098.74 -433.134L804.03 -410.417L537.831 -361.592L303.02 -286.112L107.617 -184.889L-41.9241 -56.7555L-135.798 97.1578L-163.066 278.054L-111.591 483.928L-2.07805 657.204L34.487 715.108L106.596 738.08L176.044 762.547L239.696 786.796L299.119 812.029L351.287 836.678L397.586 861.838L431.271 887.071L457.264 914.346L493.136 945.923L500.318 952.268L543.554 985.924L566.485 1006.12L636.48 1072.09L657.624 1090.68L691.419 1111.94L691.965 1112.27L714.568 1127.84L719.089 1130.87L804.03 1187.28L812.123 1192.82L870.598 1231.47L876.285 1238.73L898.852 1257.1L953.681 1293.39" stroke="#F2F2F7" stroke-linecap="round" stroke-linejoin="round"/>
<path d="M3581.59 8.33205L3272.19 -126.11L3250.46 -135.59L3243.39 -138.653L3219.44 -187.15L2843.33 -317.763L2813.58 -328.118L2777.05 -374.427L2411.44 -471.785L2381.07 -479.88L2333.97 -522.944L1958.36 -593.975L1950.85 -595.397L1894.6 -634.559L1831.35 -673.576L1755.34 -712.92L1672.08 -751.644L1575.83 -790.004L1472.63 -827.088L1356.84 -862.932L1234.68 -896.843L1100.78 -928.603L961.41 -957.701L811.394 -983.736L656.859 -1006.49L492.991 -1025.41L325.404 -1040.51L149.651 -1051.08L-29.1644 -1057.47L-215.198 -1058.67L-403.965 -1055.31L-599.404 -1046.27L-797.723 -1032.23L-1002.6 -1011.96L-1211.06 -986.179L-1426.62 -953.398L-1647.07 -914.382L-1875.9 -867.344L-2111.77 -812.794L-2358.32 -748.618L-2615.26 -674.998L-2886.53 -589.235L-2996.66 -551.422" stroke="#F2F2F7" stroke-linecap="round" stroke-linejoin="round"/>
<path d="M3581.59 143.248L3250.13 -12.4522L2859.18 -164.36L2474.54 -284.362L2104.81 -372.531L2094.67 -408.667L2081.95 -444.656L2060.04 -481.631L2032.92 -518.824L1662.02 -571.441L1625.78 -606.337L1270.04 -629.418L1225.49 -661.433L887.222 -656.146L835.054 -684.77L516.614 -651.843L457.373 -676.566L389.347 -699.173L95.7692 -636.31L21.8734 -653.666L-57.0166 -669.054L-324.857 -574.285L-408.851 -583.182L-645.484 -458.695L-733.853 -460.081L-917.954 -314.992L-932.573 -303.505L-1024.44 -296.03L-1170.81 -110.503L-1175.95 -103.976L-1270.04 -85.7443L-1358.52 138.544L-1361.58 146.347L-1380.14 415.231L-1304.09 727.105L-1108.4 1083.1L-926.339 1293.39" stroke="#F2F2F7" stroke-linecap="round" stroke-linejoin="round"/>
<path d="M3581.59 -274.881L3258.67 -394.373L3240.77 -401.009L2879.64 -512.661L2852.99 -520.902L2830.13 -527.976L2447.85 -623.657L2433.64 -627.23L2064.34 -698.116L2045.27 -701.762L1683.34 -750.149L1672.08 -751.644L1308.91 -778.336L962.467 -781.946L629.262 -762.547L316.107 -720.249L21.8734 -653.666L-245.675 -562.908L-484.059 -445.276L-683.727 -300.698L-836.913 -125.49L-930.641 80.4939L-949.707 321.519L-875.556 597.221L-683.07 911.1L-346.256 1260.93L-253.549 1239.09L-160.733 1221.92L-64.7818 1210.87L30.1853 1203.28L127.267 1200.59L222.197 1200.44L318.003 1204.16L410.236 1209.67L501.849 1218.2L588.249 1227.93L672.243 1240.08L749.128 1252.91L821.675 1267.68L885.144 1282.85L921.272 1293.39" stroke="#F2F2F7" stroke-linecap="round" stroke-linejoin="round"/>
<path d="M3581.59 52.4167L3265.05 -89.2083L3254.04 -94.1308L3243.39 -138.653L2848.47 -280.497L2836.98 -284.617L2813.58 -328.118L2438.19 -432.259L2415.66 -438.53L2381.07 -479.88L2018.08 -552.443L1995.04 -557.037L1950.85 -595.397L1590.85 -639.956L1579.12 -641.414L1526.44 -676.237L1462.27 -710.878L1391.59 -744.935L1308.91 -778.336L1219.52 -810.643L1118.1 -841.6L1010.26 -870.917L890.832 -898.082L765.533 -922.951L629.481 -944.865L488.251 -963.827L337.288 -979.068L181.95 -990.81L17.8998 -998.029L-149.906 -1001.24L-325.44 -999.269L-504.364 -992.852L-690.398 -980.6L-879.712 -963.352L-1075.92 -939.578L-1275.88 -910.225L-1483.02 -873.542L-1695.01 -830.406L-1915.13 -778.773L-2141.95 -719.374L-2378.95 -649.874L-2625.54 -570.493L-2885.54 -478.385L-2996.66 -435.723" stroke="#F2F2F7" stroke-linecap="round" stroke-linejoin="round"/>
<path d="M3581.59 97.34L3257.72 -51.4684L2868.01 -199.438L2859.11 -202.829L2489.85 -315.466L2472.17 -320.862L2460.5 -359.04L2443.63 -397.874L2415.66 -438.531L2057.49 -513.682L2032.92 -518.824L1995.04 -557.038L1631.68 -605.571L1625.78 -606.336L1579.12 -641.415L1225.49 -661.433L1170.99 -692.865L835.054 -684.77L773.481 -712.045L706.402 -738.189L389.347 -699.173L316.107 -720.249L233.499 -738.7L-57.0166 -669.054L-144.437 -681.014L-408.851 -583.182L-500.464 -587.849L-733.853 -460.081L-828.893 -456.325L-1024.44 -296.03L-1121.85 -282.284L-1266.51 -90.4845L-1270.04 -85.7442L-1368.29 -59.928L-1455.82 177.998L-1469.71 456.216L-1389.25 776.44L-1185.54 1145.27L-1058.45 1293.39" stroke="#F2F2F7" stroke-linecap="round" stroke-linejoin="round"/>
<path d="M1733.58 -466.826L1387.03 -497.164L1061.63 -500.336L1036.51 -532.899L729.515 -508.833L696.486 -539.608L411.403 -488.522L370.645 -517.073L111.591 -438.786L63.2507 -464.493L11.9211 -488.923L-220.484 -380.59L-279.251 -401.228L-473.888 -263.322L-539.799 -279.294L-610.05 -291.254L-760.867 -120.057L-851.97 83.4839L-867.974 319.222L-789.302 590.803L-594.41 896.843L-253.549 1239.09L-178.706 1293.39" stroke="#F2F2F7" stroke-linecap="round" stroke-linejoin="round"/>
<path d="M427.297 887.983L397.586 861.838L383.769 844.08L373.598 831.026L341.954 790.442L295.109 730.386L232.697 650.276L195.329 560.757L153.114 459.534L109.148 428.941L61.3913 398.676L9.33267 367.718L-45.3874 337.563L-103.316 307.116L-163.066 278.054L-225.26 249.175L-288.656 222.265L-353.985 196.047L-420.334 172.455L-488.397 150.067L-557.626 130.996L-628.642 113.712L-701.08 100.44L-775.595 89.5734L-851.97 83.4839L-930.641 80.4939L-1011.61 83.1557L-1095.17 89.6827L-1181.27 102.773L-1270.15 120.713L-1361.58 146.347L-1455.82 177.998L-1552.47 218.801L-1651.66 267.042L-1752.72 326.186L-1855.89 394.702" stroke="#F2F2F7" stroke-linecap="round" stroke-linejoin="round"/>
<path d="M3581.59 -388.539L3289.91 -490.382L3263.88 -499.461L2890.46 -609.436L2860.28 -618.296L2490.95 -707.341L2470.27 -712.336L2112.28 -779.612L2087.2 -784.352L1734.38 -831.864L1718.01 -834.052L1356.84 -862.931L1010.26 -870.917L673.665 -858.045L353.657 -824.353L47.6843 -768.527L-237.144 -690.568L-338.455 -696.037L-445.015 -698.517L-560.105 -696.183L-680.263 -690.239L-808.514 -678.644L-941.65 -662.709L-1082.41 -640.248L-1227.72 -612.535L-1380.18 -577.238L-1537.15 -535.67L-1700.88 -485.24L-1869.23 -427.227L-2044.36 -358.711L-2224.71 -280.788L-2412.35 -190.067L-2606.47 -87.4215L-2809.17 31.3772L-2996.66 150.759" stroke="#F2F2F7" stroke-linecap="round" stroke-linejoin="round"/>
<path d="M1403.91 -463.253L1081.09 -466.972L782.631 -444.146L757.039 -476.781L729.515 -508.833L446.947 -458.257L411.402 -488.522L155.119 -410.782L111.591 -438.786L-113.195 -333.223L-164.707 -358.31L-220.484 -380.59L-410.856 -245.309L-551.101 -80.384L-628.642 113.712L-628.606 339.824L-545.377 565.57L-533.93 596.601L-354.021 841.637L-321.649 885.685L-34.7788 1144.61L30.1852 1203.28L166.785 1293.39" stroke="#F2F2F7" stroke-linecap="round" stroke-linejoin="round"/>
<path d="M1061.63 -500.336L757.039 -476.781L480.377 -427.19L446.947 -458.257L196.387 -381.793L-18.2276 -278.163L-187.71 -148.061L-303.566 10.3742L-353.985 196.047L-324.674 410.6L-221.322 611.588L-200.652 651.771L-15.5299 859.213L38.461 919.742L303.858 1126.71L407.648 1207.66L410.236 1209.67L553.762 1293.39" stroke="#F2F2F7" stroke-linecap="round" stroke-linejoin="round"/>
<path d="M782.631 -444.146L509.76 -394.665L269.881 -319.294L67.3701 -216.977L-88.8426 -88.6614L-190.116 67.1845L-225.26 249.175L-180.456 458.44L-111.591 483.928L-44.3302 511.166L61.5736 670.404L106.596 738.08L264.996 889.696L363.39 983.845L366.708 987.054L564.188 1124.34L737.316 1244.71L749.128 1252.91L825.102 1293.39" stroke="#F2F2F7" stroke-linecap="round" stroke-linejoin="round"/>
<path d="M3581.59 -820.962L3343.13 -920.581L2977.74 -1005.65L2618.14 -1076.97L2267.07 -1134.19L1921.25 -1178.23L1583.89 -1208.83L1251.27 -1226.47L926.996 -1230.96L607.17 -1222.17L295.838 -1200L-10.7178 -1163.65L-308.123 -1112.93L-573.01 -1052.29L-599.405 -1046.27L-858.933 -969.479L-879.712 -963.353L-1128.27 -870.078L-1150.91 -861.582L-1390.27 -748.545L-1407.48 -740.414L-1630.52 -607.139L-1649.18 -595.981L-1855.85 -437.51L-1869.23 -427.227L-2050.16 -242.757L-2064.01 -228.645L-2215.38 -10.8478L-2224.23 1.87806L-2340.57 271.965L-2398.86 585.334L-2524.05 727.141L-2482.34 1120L-2569.73 1293.39" stroke="#F2F2F7" stroke-linecap="round" stroke-linejoin="round"/>
<path d="M480.377 -427.19L233.9 -350.872L25.8835 -248.555L-137.547 -118.707L-246.112 37.6491L-288.656 222.265L-252.164 433.317L-144.292 627.486L-119.721 671.716L60.4071 865.193L124.35 933.854L381.144 1127.26L497.365 1214.84L501.849 1218.2L634.037 1293.39" stroke="#F2F2F7" stroke-linecap="round" stroke-linejoin="round"/>
<path d="M3581.59 820.78L3383.09 671.133L3316.81 685.682L3056.55 519.371L3001.58 539.608L2741.54 399.551L2475.27 280.898L2205.75 184.306L1938.31 110.722L1675.87 60.3294L1423.49 33.3462L1184.34 29.8457L963.524 49.5726L764.95 92.6727L593.973 158.563L455.587 247.461L355.771 358.602L316.581 453.919L300.869 491.987L300.14 527.721" stroke="#F2F2F7" stroke-linecap="round" stroke-linejoin="round"/>
<path d="M155.119 -410.782L-64.0162 -306.897L-240.134 -175.044L-362.661 -15.9892L-420.334 172.455L-399.372 388.831L-298.973 599.117L-281.985 634.669L-98.2117 851.008L-50.8193 906.798L226.39 1130.28L318.003 1204.16L466.378 1293.39" stroke="#F2F2F7" stroke-linecap="round" stroke-linejoin="round"/>
<path d="M3581.59 -701.069L3361.76 -799.12L2986.49 -893.816L2621.57 -971.776L2262.44 -1034.57L1913.45 -1081.82L1569.67 -1114.57L1235.78 -1132.58L906.836 -1136.15L587.739 -1125.07L274.038 -1098.89L-29.1644 -1057.47L-300.759 -1004.12L-325.44 -999.269L-591.02 -929.04L-609.357 -924.191L-862.323 -836.787L-882.884 -829.677L-1125.39 -721.781L-1139.97 -715.29L-1363.95 -586.573L-1380.18 -577.238L-1585.28 -422.778L-1596.1 -414.61L-1772 -233.823L-1783.38 -222.118L-1925.37 -7.85776L-1931.93 2.06037L-2064.7 79.801L-2200.87 168.371L-2340.57 271.965L-2483.58 389.597L-2629.66 526.226L-2779.16 681.671L-2931.69 862.166L-2996.66 948.002" stroke="#F2F2F7" stroke-linecap="round" stroke-linejoin="round"/>
<path d="M3581.59 -989.059L3359.65 -1075.41L3007.01 -1150.3L2659.04 -1213.93L2314.94 -1266.37L1976.26 -1307.42L1641.45 -1337.32L1312.33 -1355.7L986.82 -1362.74L667.176 -1358.04L350.959 -1341.37L40.8671 -1312.35L-265.579 -1270.19L-539.034 -1219.4L-565.209 -1214.55L-832.757 -1150.45L-860.209 -1143.88L-1123.75 -1064.58L-1146.82 -1057.61L-1402.09 -962.55L-1426.62 -953.398L-1674.99 -839.558L-1695.01 -830.406L-1952.09 -684.952L-2175.6 -527.429L-2192.23 -515.687L-2395.65 -332.895L-2412.97 -317.325L-2606.47 -87.4212L-2765.86 181.754L-2879.23 494.54L-2931.69 862.167L-2903.08 1292.4L-2903.55 1293.39" stroke="#F2F2F7" stroke-linecap="round" stroke-linejoin="round"/>
<path d="M3581.59 1038.65L3405.36 880.398L3328.33 883.789L3117.14 722.911L3051.09 732.939L2834.61 593.028L2778.73 607.832L2559.55 488.377L2512.64 506.28L2465.06 522.106L2416.25 535.342L2366.7 546.208L2315.26 554.121L2262.91 559.481L2207.9 561.778L2151.76 561.523L2092.05 558.314L2030.66 552.735L1964.74 544.64L1896.39 534.576L1822.38 522.689L1744.99 509.489L1660.74 495.414L1572.04 480.975L1475.36 466.973L1373.07 453.919L1261.88 442.907L1144.05 434.629L1016.79 430.545L882.119 431.457L737.973 439.297L586.281 455.122L425.766 481.339L311.478 507.338" stroke="#F2F2F7" stroke-linecap="round" stroke-linejoin="round"/>
<path d="M-113.195 -333.223L-294.343 -200.933L-423.506 -39.5448L-488.397 150.066L-474.471 370.161L-380.342 585.188L-365.578 618.917L-180.602 846.997L-139.917 897.135L140.427 1131.96L222.197 1200.44L372.322 1293.39" stroke="#F2F2F7" stroke-linecap="round" stroke-linejoin="round"/>
<path d="M3581.59 1207.48L3433.62 1049.74L3432.63 1048.68L3346.01 1040.04L3174.89 886.232L3098.73 885.102L2918.57 747.743L2852.15 752.264L2665.31 631.387L2465.06 522.106L2253.95 426.206L2213.92 443.417L2172.18 457.929L2129.45 469.853L2084.28 478.787L2037.95 485.022L1988.48 488.267L1937.51 488.887L1882.46 486.736L1825.34 482.214L1763.14 475.468L1698.03 466.863L1626.73 456.726L1551.45 445.495L1468.73 433.79L1380.91 422.086L1284.55 411.219L1181.86 401.775L1069.79 395.03L950.364 391.529L820.982 393.024L683.654 400.317L536.409 415.522L381.181 439.771L355.079 445.459" stroke="#F2F2F7" stroke-linecap="round" stroke-linejoin="round"/>
<path d="M272.324 1293.39L127.267 1200.59L56.0324 1138.74L-231.348 889.331L-268.022 841.673L-448.916 606.738L-533.93 596.601L-618.398 590.949L-704.215 588.141L-789.302 590.803L-875.557 597.221L-961.009 610.165L-1047.48 628.033L-1132.97 653.74L-1219.19 685.718L-1304.09 727.105L-1389.25 776.44L-1472.34 837.225L-1554.84 908.11L-1634.02 993.071" stroke="#F2F2F7" stroke-linecap="round" stroke-linejoin="round"/>
<path d="M3412.4 1293.39L3307.7 1159.97L3306.31 1158.22L3212.73 1135.83L3091.33 1007.11L3089.26 1004.89L3004.24 989.826L2918.5 972.542L2832.83 953.654L2745.37 932.505L2657.47 909.897L2566.77 885.248L2474.83 859.504L2378.99 832.23L2281 804.481L2177.83 776.075L2071.67 748.071L1959.24 720.614L1842.8 694.725L1719.29 671.06L1590.96 650.531L1455.09 634.305L1313.97 623.256L1165.42 619.063L1011.65 622.782L851.386 636.492L686.789 661.579L517.671 700.632L349.318 754.635" stroke="#F2F2F7" stroke-linecap="round" stroke-linejoin="round"/>
<path d="M3581.59 754.999L3450.28 656.365L3383.09 671.133L3112.3 498.696L3056.56 519.371L2786.56 374.501L2741.54 399.551L2696.85 423.872L2651.35 446.845L2404.29 335.74L2367.87 361.155L2330.9 384.856L2096.24 298.984L2066.45 323.415L2035.54 345.731L1812.72 281.956L1787.39 303.579L1569.6 258.582L1353.75 231.709L1336.65 251.545L1318.02 268.756L1296.87 283.378L1274.24 295.229L1248.64 304.49L1221.52 311.054L1190.83 315.32L1158.49 321.665L1113.39 319.586L1096.77 318.711L1077.67 315.94L1040.04 310.507L1002.5 307.881L969.539 305.548L951.53 304.782L942.343 304.855L930.823 304.454L897.977 304.818L857.365 305.985L838.189 305.621L814.092 304.527L792.656 305.912L792.365 305.949L786.641 306.642L723.791 314.627L666.556 321.482L663.603 320.024L642.969 324.983L627.512 326.077L582.744 334.354L573.011 336.943L563.459 339.532L554.892 341.829L547.565 342.084L529.227 350.507L525.582 353.57L521.718 354.883L500.099 360.207L485.553 359.295L463.826 366.296L451.978 367.171L420.407 383.58L400.357 401.338L397.878 407.464L368.057 429.67L352.053 441.083L346.038 441.667L342.501 447.793L339.585 457.091L338.673 458.185L337.981 459.06L334.627 465.149L310.748 507.484L301.379 525.424L300.286 527.539L300.14 528.013L299.958 535.67" stroke="#F2F2F7" stroke-linecap="round" stroke-linejoin="round"/>
<path d="M288.693 599.482L283.079 440.682L265.689 412.569L243.196 383.58L215.417 353.06L183.263 322.175L146.625 290.124L106.56 258.145L62.886 225.328L16.6967 193.057L-32.2269 160.386L-83.0096 128.772L-135.798 97.1578L-190.116 67.1846L-246.112 37.6491L-303.567 10.3742L-362.661 -15.9891L-423.506 -39.5446L-486.173 -61.6781L-551.101 -80.384L-618.252 -97.1573L-688.211 -109.847L-760.867 -120.056L-836.913 -125.49L-916.059 -127.823L-999.068 -124.578L-1085.43 -117.504" stroke="#F2F2F7" stroke-linecap="round" stroke-linejoin="round"/>
<path d="M3581.59 -1041.57L3433.54 -1099L3085.76 -1173.09L2741.1 -1236.83L2399.59 -1290.14L2062.37 -1332.69L1728.47 -1364.64L1399.32 -1385.6L1073.4 -1395.63L752.482 -1394.39L434.661 -1381.63L122.09 -1356.98L-187.309 -1319.75L-463.57 -1273.99L-490.803 -1269.47L-762.252 -1210.98L-790.432 -1204.89L-1058.75 -1131.96L-1082.92 -1125.36L-1344.41 -1037.37L-1369.82 -1028.84L-1625.85 -923.133L-1647.07 -914.382L-1892.67 -790.15L-1915.13 -778.773L-2150.85 -631.934L-2168.9 -620.703L-2387.92 -450.053L-2406.84 -435.285L-2607.68 -234.626L-2622 -220.295L-2809.17 31.3771L-2958.05 323.707L-2996.66 457.966" stroke="#F2F2F7" stroke-linecap="round" stroke-linejoin="round"/>
<path d="M56.2512 1293.39L-64.7817 1210.87L-122.6 1156.79L-413.444 884.737L-443.702 841.382L-618.398 590.949L-628.569 560.976L-707.496 328.848L-701.079 100.44L-618.252 -97.1572L-473.888 -263.322" stroke="#F2F2F7" stroke-linecap="round" stroke-linejoin="round"/>
<path d="M3581.59 -877.699L3448.2 -933.853L3083.53 -1020.16L2724.44 -1093.24L2373.12 -1152.82L2026.9 -1199.64L1688.59 -1233.44L1354.95 -1254.73L1029.11 -1263.27L707.532 -1259.07L393.867 -1241.9L84.5771 -1211.2L-216.328 -1166.75L-511.911 -1107.2L-775.303 -1038.1L-797.724 -1032.23L-1051.67 -947.673L-1075.92 -939.578L-1322.43 -836.714L-1341.42 -828.765L-1574.23 -707.049L-1594.75 -696.329L-1814.47 -551.422L-1829.82 -541.285L-2028.18 -372.458L-2044.36 -358.711L-2219.13 -159.437L-2230.29 -146.748L-2380.67 101.57L-2483.58 389.597L-2524.05 727.141L-2650.44 888.748L-2584.23 1293.39" stroke="#F2F2F7" stroke-linecap="round" stroke-linejoin="round"/>
<path d="M3490.01 1293.39L3400.73 1179.51L3306.31 1158.21L3176.24 1020.09L3174.6 1018.38L3089.26 1004.89L2948.65 878.976L2946.42 877.043L2785.11 754.343L2607.79 639.81L2416.25 535.342L2213.92 443.417L2002.99 365.567L1969.34 382.924L1933.43 397.509L1896.35 409.36L1856.43 418.257L1815.09 424.419L1770.18 427.738L1723.44 428.467L1672.26 426.68L1618.56 422.669L1559.32 416.726L1496.69 409.141L1427.35 400.463L1353.42 390.982L1271.57 381.538L1183.94 372.459L1087.25 364.874L983.575 359.186L869.942 356.925L748.326 358.675L616.32 366.296L475.747 380.626L452.561 384.236" stroke="#F2F2F7" stroke-linecap="round" stroke-linejoin="round"/>
<path d="M706.366 1293.39L588.249 1227.93L585.661 1226.04L447.749 1125.11L209.219 950.554L135.214 874.491L-41.9239 692.355L-72.2916 641.087L-180.456 458.44L-252.164 433.316L-324.674 410.599L-399.372 388.831L-474.471 370.161L-551.356 353.06L-628.606 339.823L-707.496 328.848L-786.896 322.54L-867.974 319.221L-949.707 321.519L-1033.3 327.645L-1117.7 340.443L-1204.02 358.092L-1291.15 383.616L-1380.14 415.23L-1469.71 456.216L-1560.78 504.931L-1651.92 564.841L-1743.89 634.487L-1834.92 717.879L-1925.81 813.742" stroke="#F2F2F7" stroke-linecap="round" stroke-linejoin="round"/>
<path d="M2557.66 1185.23L2432.83 1136.59L2306.01 1091.12L2174.95 1049.04L2041.37 1011.3L1903.17 978.558L1762.16 951.758L1616.7 932.067L1468.65 920.435L1317.14 918.503L1164.18 927.4L1009.79 949.205L856.381 985.304L705.163 1038.29L643.079 1068.84" stroke="#F2F2F7" stroke-linecap="round" stroke-linejoin="round"/>
<path d="M3581.59 964.374L3483.38 876.205L3405.36 880.398L3183.64 711.644L3117.14 722.911L2890.46 576.582L2834.61 593.027L2605.78 468.467L2559.55 488.377L2330.9 384.856L2292.99 406.661L2253.95 426.206L2035.54 345.731L2002.99 365.567L1787.39 303.579L1760.01 322.613L1548.35 278.455L1524.76 295.702L1499.75 310.215L1471.94 321.993L1442.62 330.999L1409.92 337.38L1375.44 341.173L1336.79 342.704L1295.74 341.902L1250.14 342.704L1225.31 340.553L1209.89 337.235L1200.16 335.12L1144.42 329.869L1084.27 323.634L1075.15 322.321L992.433 309.012L962.686 305.949L942.671 308.064L860.573 306.459L852.735 305.292L835.164 304.089L819.342 304.928L812.488 302.448L775.048 304.016L698.418 313.788L691.273 314.7L671.988 319.987L664.952 321.227L659.155 322.284L645.375 325.566L625.397 330.306L618.143 332.02L617.158 332.276L560.361 345.038L549.023 345.33L526.858 351.091L509.942 357.144L465.794 374.938L445.27 384.455L417.709 397.254L408.996 402.614L408.741 402.833L386.357 420.591L372.468 431.639L370.645 433.098L357.63 443.453L355.078 445.459L341.152 456.544L338.746 458.44" stroke="#F2F2F7" stroke-linecap="round" stroke-linejoin="round"/>
<path d="M2679.13 1236.03L2557.66 1185.23L2548.51 1119.05L2527.98 1050.68L2492.8 979.506L2444.14 906.688L2378.99 832.229L2299.3 757.771L2299.15 757.661L2205.02 685.755L2202.58 683.895L2095.04 614.651L2091.72 612.499L1969.52 547.193L1964.74 544.64L1842.76 490.018L1830.88 484.694L1825.34 482.214L1679.08 429.16L1672.26 426.68L1516.96 381.757L1509.59 379.642L1345.91 344.637L1336.79 342.704L1225.86 326.806L1158.2 317.107L1121.19 317.034L1082.92 319.295L1016.49 317.435L942.999 311.273L900.456 305.147" stroke="#F2F2F7" stroke-linecap="round" stroke-linejoin="round"/>
<path d="M3581.59 -637.075L3463.69 -693.448L3227.06 -797.443L2899.9 -877.335L2851.86 -889.04L2487.52 -963.389L2128.79 -1022.13L1780.64 -1064.87L1437.7 -1092.65L1105.08 -1105.16L777.636 -1102.61L460.654 -1084.81L149.651 -1051.08L-149.906 -1001.24L-418.84 -938.74L-441.187 -933.525L-702.428 -852.649L-718.396 -847.726L-964.654 -748.217L-982.809 -740.888L-1215.43 -618.989L-1227.72 -612.535L-1437.74 -467.811L-1451.45 -458.367L-1636.93 -285.274L-1645.46 -277.325L-1794.68 -75.1333L-1803.28 -63.465L-1931.93 2.0603L-2031.17 265.146L-2151.87 356.451L-2170.83 680.285L-2276.33 805.939L-2182.38 1206.97L-2141.77 1293.39" stroke="#F2F2F7" stroke-linecap="round" stroke-linejoin="round"/>
<path d="M3581.59 -656.037L3463.69 -693.448L3126.84 -786.248L3082.62 -798.464L2753.21 -875.548L2707.64 -886.195L2343.85 -956.206L1985.74 -1010.14L1638.5 -1047.62L1296.58 -1069.53L965.383 -1075.7L639.834 -1066.07L325.404 -1040.51L17.8998 -998.03L-276.881 -938.411L-541.768 -865.119L-561.636 -859.613L-830.06 -761.344L-1066.77 -647.723L-1082.41 -640.248L-1301.21 -501.977L-1311.27 -495.633L-1502.08 -332.275L-1513.17 -322.795L-1678.35 -120.385L-1803.28 -63.465L-1912.9 185.217L-2031.17 265.146L-2065.54 570.165L-2170.83 680.285L-2100.65 1055.9L-2182.38 1206.97L-2221.14 1293.39" stroke="#F2F2F7" stroke-linecap="round" stroke-linejoin="round"/>
<path d="M3569.34 1293.39L3495.88 1199.56L3346.01 1040.04L3260.01 1029.94L3100.52 886.743L3098.73 885.102L3022.51 882.002L2852.15 752.265L2785.11 754.343L2717.77 754.307L2649.05 751.462L2579.93 746.394L2508.55 738.445L2436.26 728.344L2360.83 715.509L2283.88 700.814L2202.58 683.895L2118.99 665.59L2029.93 645.863L1937.58 625.517L1838.61 604.805L1735.29 584.568L1624.36 565.461L1508.1 548.287L1383.49 534.102L1252.84 523.747L1113.54 518.751L967.826 520.064L813.837 529.727L653.76 548.906L486.684 580.156L314.868 625.152L300.614 630.148" stroke="#F2F2F7" stroke-linecap="round" stroke-linejoin="round"/>
<path d="M2658.35 1293.39L2555.14 1248.61L2428.24 1197.78L2297.91 1150.38L2165.47 1107.49L2029.05 1069.5L1890.23 1037.37L1747.54 1012.03L1602.63 994.493L1454.58 986.07L1305.37 987.893L1154.84 1001.82L1005.27 1029.13L857.729 1072.16L719.526 1130.68" stroke="#F2F2F7" stroke-linecap="round" stroke-linejoin="round"/>
<path d="M3172.89 1293.39L3113.94 1199.42L3013.61 1164.63L2912.12 1128.53L2810.41 1092.14L2706.4 1054.69L2601.37 1017.32L2492.8 979.506L2382.38 942.35L2267.22 905.704L2149.28 870.699L2025.73 837.48L1898.54 807.179L1765.11 780.488L1627.49 758.354L1483.49 742.018L1335.23 732.501L1181.16 731.48L1023.42 740.159L861.375 760.724L697.397 794.599L531.998 844.554L445.452 880.471" stroke="#F2F2F7" stroke-linecap="round" stroke-linejoin="round"/>
<path d="M3581.59 -761.198L3487.75 -803.569L3231.36 -909.569L2865.86 -992.815L2506.11 -1061.8L2155.59 -1116.24L1810.35 -1157.05L1474.12 -1183.99L1142.67 -1197.52L820.034 -1197.45L502.068 -1183.59L193.179 -1155.77L-110.424 -1113.07L-381.363 -1059.76L-403.966 -1055.31L-690.398 -980.6L-945.515 -894.983L-964.436 -888.638L-1206.61 -785.3L-1227.39 -776.44L-1458.08 -651.661L-1473.28 -643.42L-1684.4 -496.69L-1700.88 -485.241L-1891.29 -310.908L-1902.51 -300.661L-2061.53 -97.8866L-2072.76 -83.5564L-2200.87 168.371L-2274.43 463.509L-2398.86 585.334L-2379.97 952.56L-2482.34 1120L-2424.96 1293.39" stroke="#F2F2F7" stroke-linecap="round" stroke-linejoin="round"/>
<path d="M3581.59 -775.82L3487.75 -803.569L3112.66 -900.635L2747.34 -981.548L2387.81 -1047.73L2038.06 -1098.85L1693.51 -1135.9L1358.41 -1158.69L1028.16 -1167.55L707.277 -1162.34L391.315 -1142.75L85.0876 -1108.55L-215.198 -1058.67L-483.804 -997.519L-504.365 -992.852L-762.252 -915.731L-785.037 -908.912L-1034.69 -813.049L-1051.53 -806.559L-1285.79 -691.552L-1304.42 -682.4L-1524.07 -543.911L-1537.15 -535.67L-1733.03 -373.224L-1747.07 -361.592L-1916.55 -168.809L-1925.48 -158.635L-2056.28 65.3977L-2064.7 79.8008L-2151.87 356.451L-2274.43 463.508L-2276.33 805.939L-2379.97 952.559L-2284.31 1293.39" stroke="#F2F2F7" stroke-linecap="round" stroke-linejoin="round"/>
<path d="M3581.59 -1092.62L3494.75 -1126.02L3153.56 -1198.47L2813.98 -1261.63L2476.44 -1315.12L2141.88 -1358.69L1809.92 -1392.17L1481.63 -1415.28L1156.08 -1427.97L834.581 -1429.83L515.703 -1420.68L201.199 -1400.04L-110.643 -1367.37L-417.563 -1322.12L-692.476 -1268.81L-721.385 -1263.19L-994.001 -1196.14L-1019.23 -1189.94L-1286.34 -1108.48L-1312.59 -1100.49L-1575.58 -1002.26L-1597.89 -993.909L-1852.42 -878.027L-1875.9 -867.344L-2122.63 -730.131L-2141.95 -719.374L-2374.98 -559.626L-2395.25 -545.697L-2613.69 -357.8L-2629.59 -344.126L-2841.07 -108.097L-2996.66 129.355" stroke="#F2F2F7" stroke-linecap="round" stroke-linejoin="round"/>
<path d="M3581.59 1121.86L3519.8 1056.04L3328.33 883.789L3251.34 885.722L3051.09 732.939L2984.85 741.252L2778.73 607.832L2722.33 620.74L2665.31 631.387L2607.79 639.81L2549.02 645.535L2489.67 648.853L2428.24 649.182L2366.01 647.067L2300.86 641.998L2234.41 634.596L2164.05 624.532L2091.72 612.499L2014.36 598.351L1934.19 582.854L1847.79 566.117L1757.57 548.87L1659.97 531.586L1557.46 514.995L1446.63 499.899L1329.87 487.1L1204.17 477.839L1071.72 472.916L930.203 474.083L781.683 482.287L624.595 499.826L460.982 527.94L299.301 567.211" stroke="#F2F2F7" stroke-linecap="round" stroke-linejoin="round"/>
<path d="M714.495 1127.33L705.162 1038.29L700.751 950.627L698.71 869.678L697.397 794.599L693.752 725.537L686.789 661.579L673.592 602.982L653.76 548.906L624.595 499.826L586.28 455.122L536.409 415.522L475.747 380.626L468.127 377.636" stroke="#F2F2F7" stroke-linecap="round" stroke-linejoin="round"/>
<path d="M3398.84 1293.39L3315.35 1266.69L3213.93 1137.36L3212.73 1135.83L3119.15 1111.72L3006.03 991.758L3004.24 989.825L2872.56 872.23L2869.68 869.678L2720.54 756.385L2717.77 754.306L2549.02 645.535L2366.7 546.208L2172.18 457.929L1969.34 382.924L1760.01 322.613L1731.32 339.021L1524.76 295.702L1318.02 268.756L1113.25 259.348L1095.79 273.168L1075.73 284.472L880.77 290.525L811.577 295.958L714.641 305.839L709.246 306.569L663.603 320.024L648.838 325.165L642.969 324.983L605.165 332.968L560.36 345.038L526.967 353.643L525.254 354.044L501.302 363.561" stroke="#F2F2F7" stroke-linecap="round" stroke-linejoin="round"/>
<path d="M3581.59 1216.52L3495.88 1199.56L3400.73 1179.51L3261.62 1031.58L3260.01 1029.94L3174.6 1018.38L3024.77 884.008L3022.51 882.003L2946.42 877.043L2869.68 869.678L2792.94 860.343L2714.67 848.383L2635.93 834.49L2554.78 818.009L2472.57 799.85L2386.79 779.43L2299.3 757.771L2207.03 734.543L2112.1 710.733L2011.22 686.375L1906.67 662.345L1795.19 639.154L1679 617.641L1555.13 598.68L1425.82 583.146L1288.42 572.389L1145.11 567.321L994.001 569.8L837.168 580.885L673.592 602.982L505.422 637.477L332.767 687.286L324.127 690.605" stroke="#F2F2F7" stroke-linecap="round" stroke-linejoin="round"/>
<path d="M1021.6 1293.39L1009.46 1207.3L1004.14 1115.22L1005.27 1029.13L1009.79 949.205L1016.02 874.527L1020.91 805.137L1023.42 740.159L1020.43 679.629L1011.65 622.782L994.001 569.8L967.826 520.064L930.203 474.083L882.118 431.457L820.982 393.024L748.326 358.676L661.853 329.541L646.214 325.749" stroke="#F2F2F7" stroke-linecap="round" stroke-linejoin="round"/>
<path d="M3581.59 -411.146L3511.63 -452.751L3335.04 -547.812L2969.68 -654.541L2940.01 -663.183L2584.31 -749.274L2551.13 -757.296L2199.08 -825.082L2175.24 -829.64L1833.58 -878.356L1805.98 -882.294L1449.73 -915.002L1100.78 -928.603L765.533 -922.951L439.474 -897.681L129.126 -852.722L-168.061 -786.394L-445.015 -698.517L-690.07 -591.058L-701.335 -586.135L-810.592 -579.098L-927.36 -566.299L-1049.01 -549.015L-1177.81 -525.022L-1311.27 -495.633L-1451.45 -458.367L-1596.1 -414.61L-1747.07 -361.592L-1902.51 -300.661L-2064.01 -228.645L-2230.29 -146.748L-2402.76 -51.3589L-2580.81 56.683L-2765.86 181.754L-2958.05 323.707L-2996.66 355.248" stroke="#F2F2F7" stroke-linecap="round" stroke-linejoin="round"/>
<path d="M3000.45 1293.39L2969.54 1223.45L2912.12 1128.53L2838.08 1031.36L2747.67 934.911L2745.37 932.505L2638.44 836.751L2635.93 834.49L2512.49 741.435L2508.55 738.445L2369.84 649.51L2366.01 647.067L2207.9 561.778L2037.95 485.022L1856.43 418.257L1667.45 363.452L1471.94 321.993L1274.24 295.228L1075.73 284.472L1054.19 293.041L1029.69 299.276L1003.55 302.922L930.823 304.454L897.977 304.818L852.735 305.292L834.836 305.511L813.144 305.73L812.051 305.803" stroke="#F2F2F7" stroke-linecap="round" stroke-linejoin="round"/>
<path d="M3581.59 -426.57L3511.63 -452.751L3140.22 -571.805L3105.44 -582.963L2737.46 -681.743L2712.45 -688.453L2354.97 -766.011L2325.98 -772.319L1972.73 -830.843L1952.9 -834.125L1610.9 -872.959L1586.92 -875.694L1234.68 -896.843L890.831 -898.083L561.892 -879.34L244.217 -839.814L-55.4855 -779.393L-338.455 -696.037L-597.035 -589.454L-701.335 -586.136L-922.293 -452.605L-928.563 -448.813L-1034.87 -435.285L-1223.49 -263.942L-1330.52 -238.308L-1466.14 -34.2574L-1470.08 -28.3138L-1575.8 12.1244L-1651.66 267.042L-1651.92 564.841L-1554.84 908.11L-1335.92 1293.39" stroke="#F2F2F7" stroke-linecap="round" stroke-linejoin="round"/>
<path d="M2962.94 1293.39L2896.95 1264.11L2861.19 1179.69L2810.41 1092.14L2742.05 1001.49L2657.47 909.897L2557.77 820.67L2554.78 818.008L2439.51 730.751L2436.26 728.344L2313.15 649.838L2305.57 645.025L2300.86 641.998L2156.28 563.929L2151.76 561.523L1988.48 488.267L1815.09 424.419L1631.68 371.437L1442.62 330.999L1248.64 304.49L1054.19 293.041L860.5 298L838.845 302.776" stroke="#F2F2F7" stroke-linecap="round" stroke-linejoin="round"/>
<path d="M3142.19 1293.39L3076.31 1266.66L3013.61 1164.63L2932.02 1059.47L2834.61 955.623L2832.83 953.654L2717.81 851.191L2714.67 848.383L2583.07 748.764L2579.93 746.394L2428.24 649.182L2262.91 559.481L2084.28 478.787L1896.35 409.36L1700.07 352.623L1499.75 310.215L1296.87 283.378L1095.79 273.168L898.451 280.716L880.77 290.525L860.5 298L815.076 304.418L814.019 305.621L812.051 305.803L801.515 306.861L792.146 307.882L723.791 314.627L682.122 318.821L671.988 319.988" stroke="#F2F2F7" stroke-linecap="round" stroke-linejoin="round"/>
<path d="M3252.47 1293.39L3214.7 1233.69L3113.94 1199.42L3026.04 1086.53L2920.87 975.058L2918.5 972.542L2795.42 862.531L2792.94 860.343L2652.7 754.234L2649.05 751.462L2489.67 648.853L2315.26 554.121L2129.45 469.853L1933.43 397.509L1731.32 339.021L1700.07 352.622L1667.45 363.452L1631.68 371.438L1594.32 376.725L1552.98 379.423L1509.59 379.642L1461.36 377.673L1410.25 373.698L1353.16 368.192L1292.21 361.374L1224.04 353.972L1150.76 346.132L1069.03 338.912L980.84 332.567L883.103 328.447L777.673 326.843L661.853 329.541L617.158 332.276" stroke="#F2F2F7" stroke-linecap="round" stroke-linejoin="round"/>
<path d="M875.702 1234.9L864.984 1165.33L857.73 1072.16L856.381 985.304L857.876 904.865L860.573 829.969L861.375 760.724L859.334 696.147L851.386 636.492L837.169 580.885L813.837 529.726L781.683 482.287L737.973 439.296L683.654 400.317L616.32 366.296L560.579 345.658" stroke="#F2F2F7" stroke-linecap="round" stroke-linejoin="round"/>
<path d="M1810.79 1293.39L1829.89 1226.33L1851.51 1160.62L1871.89 1097.9L1890.23 1037.37L1903.17 978.558L1910.57 920.836L1908.82 863.807L1898.54 807.179L1876.08 750.77L1842.8 694.725L1795.19 639.154L1735.29 584.568L1659.97 531.586L1572.04 480.975L1566.87 478.605L1468.73 433.791L1461.62 431.165L1354.33 391.31L1353.42 390.982L1348.13 389.451L1224.04 353.972L1213.43 351.638L1095.53 326.077L1088.86 324.655L1084.27 323.634" stroke="#F2F2F7" stroke-linecap="round" stroke-linejoin="round"/>
<path d="M1282.91 1293.39L1280.32 1225.75L1284.59 1141.08L1293.48 1062.06L1305.37 987.893L1317.14 918.503L1327.72 852.977L1333.88 791.244L1335.23 732.501L1328.48 676.712L1313.97 623.256L1288.42 572.389L1252.84 523.746L1204.17 477.839L1144.05 434.629L1069.79 395.03L983.575 359.186L883.103 328.447L792.146 307.881" stroke="#F2F2F7" stroke-linecap="round" stroke-linejoin="round"/>
<path d="M3581.59 624.496L3516.15 640.321L3450.28 656.365L3166.98 476.964L3112.3 498.696L2830.71 348.466L2544.68 222.338L2256.86 120.494L1973.2 43.5925L1696.17 -8.55054L1431.29 -36.0077L1181.42 -38.9248L952.041 -17.7759L746.832 27.5121L571.625 96.1732L431.599 188.39L333.132 303.214L283.079 440.682L294.744 467.045L296.677 620.011" stroke="#F2F2F7" stroke-linecap="round" stroke-linejoin="round"/>
<path d="M3581.59 341.501L3524.54 307.371L3158.48 123.886L2796.04 -26.1259L2437.46 -145.216L2090 -233.531L1753.66 -293.004L1434.86 -324.253L1134.28 -328.264L858.313 -305.839L609.284 -257.123L394.341 -182.92L218.333 -82.7176L89.6444 42.3529L16.6966 193.057L9.33252 367.718L60.4069 511.604L79.9107 566.591L174.586 697.095L237.91 784.353L239.696 786.796L367.218 902.641L481.179 1006.16L504.328 1027.2L598.821 1090.61L646.104 1122.37L682.122 1146.55L767.028 1203.54L846.027 1256.59L876.541 1277.05L885.144 1282.85L905.413 1293.39" stroke="#F2F2F7" stroke-linecap="round" stroke-linejoin="round"/>
<path d="M3581.59 1060.57L3519.8 1056.04L3432.63 1048.68L3251.34 885.722L3174.89 886.232L2984.85 741.253L2918.57 747.743L2722.33 620.74L2512.64 506.281L2292.99 406.662L2066.45 323.415L1836.75 258.036L1607.3 211.508L1381.89 184.707L1164.1 178.217L957.983 192.51L776.871 226.166L767.356 227.917L641.875 269.631L605.529 281.701L599.951 283.56L596.597 284.654L523.03 323.998L472.94 350.763L451.978 367.171L438.671 379.059L424.271 392.66L413.444 400.609" stroke="#F2F2F7" stroke-linecap="round" stroke-linejoin="round"/>
<path d="M3581.59 -570.347L3531.54 -596.127L3307.81 -701.252L2967.89 -791.208L2927.21 -802.001L2595.1 -875.585L2552.55 -885.029L2223.51 -943.735L2189.57 -949.825L1832.12 -998.03L1485.97 -1029.35L1145.37 -1044.48L816.061 -1043.24L492.99 -1025.41L181.95 -990.81L-120.814 -938.083L-361.75 -878.83L-409.215 -867.161L-646.359 -788.363L-667.795 -781.253L-685.076 -775.492L-930.422 -667.669L-941.651 -662.709L-1164.76 -532.607L-1177.81 -525.022L-1377.3 -367.791L-1385.17 -361.592L-1549.62 -176.648L-1558.04 -167.168L-1678.35 -120.385L-1791.62 106.456L-1797.41 118.015L-1912.9 185.217L-1960.04 476.453L-2065.54 570.165L-2014.1 926.67L-2100.65 1055.9L-1997.95 1293.39" stroke="#F2F2F7" stroke-linecap="round" stroke-linejoin="round"/>
<path d="M343.486 740.414L332.768 687.286L314.868 625.152L298.864 588.871" stroke="#F2F2F7" stroke-linecap="round" stroke-linejoin="round"/>
<path d="M542.971 979.543L538.086 925.978L531.998 844.554L526.165 769.366L517.671 700.632L505.422 637.477L486.683 580.156L460.982 527.94L425.766 481.339L381.181 439.771L370.645 433.098" stroke="#F2F2F7" stroke-linecap="round" stroke-linejoin="round"/>
<path d="M3479.33 334.354L3432.56 360.754L3381.48 385.148L3047.19 212.346L2710.19 68.8617L2378.11 -44.6863L2051.91 -129.829L1738.24 -186.785L1438.25 -216.613L1158.16 -219.967L900.091 -197.214L670.42 -149.264L473.195 -75.8992L315.524 21.8235L203.933 144.305L146.625 290.123L153.114 459.534L191.72 489.069L225.406 518.423L252.747 546.427L274.22 573.775L288.693 599.481L296.676 620.011L298.135 623.693L298.645 629.382L293.833 632.591L315.415 693.995L327.664 722.875L330.945 730.605L345.272 749.347L346.912 751.499L348.699 753.832L349.318 754.635L394.888 817.06L439.072 883.789L472.174 917.19L474.544 918.502L498.495 939.87L502.287 943.261L542.971 979.543" stroke="#F2F2F7" stroke-linecap="round" stroke-linejoin="round"/>
<path d="M3581.59 -579.062L3531.54 -596.127L3185.28 -698.699L3139.53 -712.227L2796.3 -798.464L2759.59 -807.689L2424.67 -876.897L2385.55 -884.956L2053.66 -938.703L2023.44 -943.589L1667.05 -985.085L1322.36 -1009.15L983.647 -1016.33L656.858 -1006.49L337.288 -979.068L30.9871 -933.926L-265.179 -869.422L-503.781 -797.625L-532.509 -788.983L-544.794 -785.3L-775.96 -691.844L-808.515 -678.644L-1017.88 -565.825L-1049.01 -549.015L-1263.26 -392.149L-1435.88 -213.039L-1441.71 -206.986L-1558.04 -167.168L-1680.68 52.3075L-1684.87 59.819L-1797.41 118.015L-1855.89 394.702L-1960.04 476.453L-1925.81 813.743L-2014.1 926.671L-1869.34 1293.39" stroke="#F2F2F7" stroke-linecap="round" stroke-linejoin="round"/>
<path d="M155.119 -410.782L196.387 -381.793L233.9 -350.872L269.881 -319.294L303.02 -286.112L335.137 -252.566L365.104 -217.779L394.341 -182.92L421.719 -147.222L448.369 -111.779L473.195 -75.8991L496.928 -40.5658L518.619 -5.196L538.633 29.2622L556.277 63.3193L571.625 96.1731L584.166 128.152L593.973 158.562L600.644 187.697L604.29 214.935L604.763 240.351L602.175 263.614L518.291 310.689L476.111 334.354L458.467 344.236L420.516 378.767" stroke="#F2F2F7" stroke-linecap="round" stroke-linejoin="round"/>
<path d="M2509.76 251.873L2475.27 280.898L2439.76 308.866L2404.29 335.74L2152.56 244.471L1900.73 174.132L1652.14 125.38L1411.24 98.6161L1181.57 94.1311L967.68 111.962L773.626 152.291L604.29 214.935L464.519 299.932L412.897 352.695L363.5 403.197L359.854 406.917L346.038 441.667L343.887 450.892L339.585 457.091" stroke="#F2F2F7" stroke-linecap="round" stroke-linejoin="round"/>
<path d="M480.377 -427.19L509.76 -394.665L537.831 -361.592L562.876 -327.28L587.192 -292.639L609.284 -257.124L631.012 -221.498L650.916 -185.254L670.42 -149.264L688.247 -112.983L705.381 -77.2116L720.693 -41.5501L734.837 -6.76375L746.831 27.5121L757.112 60.5847L764.95 92.6728L770.601 123.193L773.626 152.291L774.137 179.529L772.059 204.799L767.356 227.917L760.247 248.701L648.365 284.217L598.129 300.151L592.004 302.084L588.213 303.324L526.202 334.719" stroke="#F2F2F7" stroke-linecap="round" stroke-linejoin="round"/>
<path d="M1953 1293.39L1967.48 1252.07L1990.26 1189.28L2011.88 1128.64L2029.05 1069.5L2041.37 1011.3L2045.38 953.435L2041.37 895.64L2025.73 837.48L1999.52 779.175L1959.24 720.614L1906.67 662.345L1838.61 604.805L1757.57 548.87L1660.74 495.414L1655.85 493.154L1553.05 446.261L1551.45 445.495L1548.57 444.474L1428.52 400.9L1427.35 400.463L1421.92 398.895L1306.94 365.64L1297.24 362.832L1292.21 361.374L1290.9 361.082L1168.22 334.938L1147.84 330.598L1144.42 329.869L1131.48 327.973L1056.16 316.924L1047.08 314.372L1037.46 311.747L1004.68 309.376" stroke="#F2F2F7" stroke-linecap="round" stroke-linejoin="round"/>
<path d="M3581.59 -313.825L3541.05 -330.27L3184.11 -453.554L3125.27 -473.864L2740.56 -584.385L2723.02 -589.417L2350.37 -675.253L2328.1 -680.394L1961.5 -744.169L1947.61 -746.576L1594.32 -787.816L1575.83 -790.004L1219.52 -810.643L874.062 -809.075L546.252 -785.373L233.499 -738.7L145.349 -755.218L-144.437 -681.014L-237.144 -690.568L-500.464 -587.849L-597.035 -589.454L-809.572 -467.41L-828.893 -456.325L-928.563 -448.813L-1114.41 -288.701L-1121.85 -282.284L-1223.49 -263.942L-1362.75 -67.7311L-1368.29 -59.9279L-1470.08 -28.3138L-1552.47 218.801L-1560.78 504.931L-1472.34 837.225L-1260.46 1217.83L-1195.67 1293.39" stroke="#F2F2F7" stroke-linecap="round" stroke-linejoin="round"/>
<path d="M782.631 -444.146L804.031 -410.417L824.3 -376.251L841.507 -341.173L858.313 -305.839L872.859 -269.85L887.332 -233.75L900.091 -197.214L912.741 -160.86L923.86 -124.396L934.615 -88.4426L943.729 -52.6718L952.041 -17.776L958.457 16.4999L963.524 49.5724L966.514 81.5511L967.68 111.962L966.587 140.768L963.378 167.678L957.983 192.51L950.291 215.118L940.557 235.318L928.49 253.076L914.674 268.136L898.451 280.716L810.848 292.676" stroke="#F2F2F7" stroke-linecap="round" stroke-linejoin="round"/>
<path d="M1061.63 -500.336L1081.09 -466.972L1098.74 -433.134L1112.19 -398.639L1124.73 -363.743L1134.28 -328.264L1143.62 -292.493L1150.8 -256.285L1158.16 -219.967L1163.88 -183.357L1169.75 -146.93L1174.24 -110.503L1178.58 -74.5498L1181.42 -38.9247L1183.72 -4.13833L1184.34 29.8458L1183.86 62.6267L1181.57 94.1313L1177.66 123.995L1171.87 152.145L1164.1 178.217L1154.48 202.137L1142.67 223.723L1129.14 242.794L928.49 253.077L800.385 273.168L738.957 282.831L724.922 296.104L709.246 306.569L691.273 314.7L665.827 320.717" stroke="#F2F2F7" stroke-linecap="round" stroke-linejoin="round"/>
<path d="M3581.59 -934.51L3546.08 -949.533L3275.51 -1054.73L2919.59 -1129.66L2569.54 -1192.45L2224.02 -1243.54L1884.83 -1282.59L1549.91 -1310.01L1221.48 -1325.47L896.956 -1329.12L579.026 -1320.62L264.851 -1299.69L-42.4344 -1265.96L-345.564 -1218.56L-615.809 -1162.26L-640.891 -1157.05L-904.21 -1086.86L-930.823 -1079.74L-1189.18 -993.472L-1211.06 -986.179L-1459.58 -883.278L-1483.02 -873.542L-1723.01 -750.66L-1741.67 -741.106L-1966.64 -597.403L-1986.54 -584.713L-2196.24 -415.157L-2211.29 -403.015L-2396.96 -206.366L-2412.35 -190.067L-2580.81 56.683L-2707.75 345.694L-2779.16 681.671L-2776.5 1076.75L-2903.08 1292.4L-2902.78 1293.39" stroke="#F2F2F7" stroke-linecap="round" stroke-linejoin="round"/>
<path d="M2402.65 1293.39L2414.57 1257.32L2428.24 1197.78L2432.83 1136.59L2428.31 1073.87L2411.18 1008.93L2382.38 942.35L2338.41 873.798L2281 804.48L2207.03 734.543L2120.56 666.83L2118.99 665.59L2118.7 665.408L2017.02 600.065L2014.36 598.351L1900.33 536.691L1896.39 534.576L1779.44 482.688L1768.32 477.729L1763.14 475.468L1638.06 429.779L1625.05 425.039L1618.56 422.669L1468.87 379.824L1461.36 377.673L1313.03 345.621L1305.11 343.907L1295.74 341.902L1192.5 327.207L1131.84 318.565L1121.2 317.034L1071.18 313.424L1026.88 310.215L995.241 311.163L931.625 304.928" stroke="#F2F2F7" stroke-linecap="round" stroke-linejoin="round"/>
<path d="M3581.59 -496.727L3548.74 -514.776L3349.18 -615.708L2999.58 -714.087L2957.8 -725.865L2611.14 -807.288L2578.73 -814.909L2241 -878.647L2205.72 -885.32L1844.84 -936.588L1490.02 -970.171L1147.37 -985.778L811.394 -983.736L488.251 -963.827L173.712 -925.285L-125.918 -867.891L-396.747 -794.052L-412.861 -789.64L-645.484 -703.148L-670.238 -693.959L-680.263 -690.239L-900.602 -579.718L-915.184 -572.389L-927.36 -566.299L-1120.76 -434.337L-1138.77 -422.049L-1145.84 -417.236L-1263.26 -392.149L-1385.17 -361.592L-1513.17 -322.795L-1645.46 -277.325L-1783.38 -222.119L-1925.48 -158.635L-2072.76 -83.5564L-2224.23 1.878L-2380.67 101.57L-2541.62 214.607L-2707.75 345.694L-2879.23 494.539L-2996.66 608.707" stroke="#F2F2F7" stroke-linecap="round" stroke-linejoin="round"/>
<path d="M3581.59 -98.7618L3559.5 -129.027L3498.98 -193.677L3427.89 -260.15L3052.29 -391.784L3030.05 -399.587L3010.37 -406.479L2650.18 -509.89L2618.36 -519.042L2606.62 -522.397L2245.78 -603.638L2227.81 -607.649L2211.22 -611.405L1840.72 -672.044L1831.35 -673.576L1476.05 -709.492L1462.27 -710.878L1110.73 -723.567L773.481 -712.045L457.373 -676.566L161.572 -616.109L-106.159 -530.857L-343.157 -418.549L-539.799 -279.294L-688.21 -109.847L-775.595 89.5732L-786.896 322.54L-704.214 588.141L-531.159 847.544L-503.489 888.967L-413.444 884.737L-321.648 885.685L-231.348 889.331L-139.917 897.135L-50.819 906.798L38.461 919.742L124.351 933.854L209.219 950.554L289.24 967.838L366.708 987.054L437.687 1006.42L504.328 1027.2L562.767 1047.84L615.008 1069.39L657.479 1090.57L692.549 1117.23L713.402 1130.54L719.089 1130.87L800.422 1188.55L806.254 1195.88L876.286 1238.73L905.122 1254.3L964.217 1293.39" stroke="#F2F2F7" stroke-linecap="round" stroke-linejoin="round"/>
<path d="M3581.59 -939.943L3546.08 -949.533L3183.02 -1036.43L2825.06 -1110.74L2473.96 -1172.18L2127.85 -1221.33L1788.84 -1257.98L1454.4 -1282.52L1127.1 -1294.7L803.958 -1294.63L488.032 -1282.01L176.19 -1256.41L-127.996 -1217.58L-398.679 -1169.48L-427.48 -1164.38L-718.25 -1096.48L-977.049 -1019.54L-1002.6 -1011.96L-1255.35 -917.882L-1275.88 -910.225L-1516.99 -798.537L-1539.16 -788.29L-1769.71 -655.125L-1786.84 -645.243L-1999.56 -489.908L-2017.71 -476.599L-2211.51 -293.296L-2224.71 -280.789L-2389.63 -68.2781L-2402.76 -51.3589L-2541.62 214.607L-2629.66 526.226L-2650.44 888.748L-2776.5 1076.76L-2729.29 1293.39" stroke="#F2F2F7" stroke-linecap="round" stroke-linejoin="round"/>
<path d="M330.945 730.605L305.098 704.461L297.515 686.776L260.476 600.248L255.19 587.923L225.406 518.423L215.417 353.06L266.601 210.487L370.208 90.5944L518.619 -5.19576L705.381 -77.2116L923.86 -124.396L1169.75 -146.93L1437.05 -143.977L1722.97 -115.243L2021.72 -60.2559L2331.34 21.7874L2645.7 130.887L2962.94 268.027L3276.05 432.223L3330.15 409.397L3581.59 565.789" stroke="#F2F2F7" stroke-linecap="round" stroke-linejoin="round"/>
<path d="M2472.17 -320.862L2474.54 -284.362L2473.19 -248.263L2464.62 -213.513L2453.72 -178.909L2437.46 -145.217L2420.18 -111.415L2399.15 -78.1963L2378.11 -44.6862L2354.45 -11.5772L2331.34 21.7871L2306.52 54.8232L2282.35 87.8958L2256.86 120.494L2231.89 152.801L2205.75 184.306L2179.72 215.008L2152.56 244.471L2124.97 272.548L2096.24 298.984L1859.28 231.891L1623.7 184.67L1393.26 157.87L1171.87 152.145L963.378 167.678L774.647 204.288L772.059 204.798L633.454 252.785L605.165 262.593L602.175 263.614L596.597 284.654L588.213 303.323L577.239 319.331L563.787 332.895L549.023 345.33L541.586 349.122L528.899 347.627L500.099 360.207L469.513 377.053L468.128 377.636L456.389 382.595L452.561 384.236L417.636 398.895L413.444 400.609L412.788 401.119" stroke="#F2F2F7" stroke-linecap="round" stroke-linejoin="round"/>
<path d="M1733.58 -466.826L1744.48 -432.222L1752.75 -397.472L1755.34 -362.832L1756.58 -327.936L1753.66 -293.004L1750.35 -257.743L1744.15 -222.41L1738.24 -186.785L1730.33 -151.087L1722.97 -115.243L1714.15 -79.5087L1705.8 -43.8472L1696.17 -8.55031L1686.66 26.2361L1675.87 60.3297L1664.68 93.4387L1652.14 125.381L1638.65 155.865L1623.7 184.671L1607.3 211.508L1589.4 236.231L1569.6 258.583L1548.35 278.456L1336.65 251.545L1129.14 242.794L1113.25 259.349L914.673 268.136L804.978 284.326L724.921 296.104L662.035 313.023L629.59 321.738" stroke="#F2F2F7" stroke-linecap="round" stroke-linejoin="round"/>
<path d="M1403.91 -463.253L1415.14 -429.014L1424.73 -394.409L1430.12 -359.514L1434.86 -324.253L1436.65 -288.628L1438.51 -252.748L1438.25 -216.612L1438.43 -180.331L1437.05 -143.977L1435.99 -107.732L1433.62 -71.6328L1431.29 -36.0078L1427.61 -0.893211L1423.49 33.3462L1417.83 66.6376L1411.24 98.6162L1403 129.136L1393.26 157.87L1381.89 184.707L1368.66 209.356L1353.75 231.709L1142.67 223.723L940.557 235.319L792.984 260.005L750.623 267.078L654.27 296.14L649.13 297.672L588.322 315.976L583.546 322.357L576.474 329.249L569 331.4L563.787 332.895L547.565 342.084L530.686 351.893" stroke="#F2F2F7" stroke-linecap="round" stroke-linejoin="round"/>
<path d="M1153.71 1293.39L1148.9 1257.76L1144.85 1166.64L1147.88 1081.28L1154.84 1001.82L1164.18 927.4L1172.71 857.973L1179.41 792.666L1181.16 731.48L1177.56 673.576L1165.42 619.063L1145.11 567.321L1113.54 518.751L1071.72 472.916L1016.79 430.545L950.364 391.529L869.942 356.925L777.673 326.843L725.76 315.065" stroke="#F2F2F7" stroke-linecap="round" stroke-linejoin="round"/>
<path d="M2103.57 -372.823L2105.1 -337.781L2104.19 -302.74L2097.7 -268.245L2090.01 -233.532L2078.34 -199.11L2066.53 -164.396L2051.91 -129.829L2037.76 -94.9696L2021.72 -60.2561L2006.3 -25.3968L1989.5 9.20724L1973.2 43.5925L1955.7 77.4673L1938.31 110.722L1919.76 142.993L1900.73 174.133L1880.49 203.887L1859.28 231.891L1836.75 258.036L1812.72 281.956L1589.4 236.23L1368.66 209.357L1154.48 202.137L950.291 215.118L785.875 244.179L760.247 248.701L750.623 267.079L738.957 282.831L670.238 302.485L615.081 318.237L583.546 322.358L577.24 319.331L526.639 339.058L485.553 359.295L465.794 374.938L452.561 382.997L448.369 384.893" stroke="#F2F2F7" stroke-linecap="round" stroke-linejoin="round"/>
<path d="M3581.59 -502.889L3548.74 -514.776L3186.77 -627.668L3152.21 -638.425L2799.29 -731.407L2761.77 -741.289L2412.09 -816.623L2384.02 -822.676L2043.89 -879.632L2012.46 -884.919L1653.48 -927.582L1301.03 -951.939L961.41 -957.701L629.481 -944.865L311.587 -913.324L4.19242 -861.874L-285.995 -790.332L-530.394 -706.393L-560.105 -696.183L-781.719 -592.59L-810.592 -579.098L-1013.54 -448.959L-1034.87 -435.285L-1145.84 -417.236L-1322.5 -246.039L-1330.52 -238.308L-1441.71 -206.986L-1570.04 2.71675L-1575.8 12.1243L-1684.87 59.8188L-1752.72 326.186L-1743.89 634.487L-1634.02 993.071L-1711.27 1091.09L-1783.23 1206.75L-1827.6 1293.39" stroke="#F2F2F7" stroke-linecap="round" stroke-linejoin="round"/>
<path d="M3332.38 1293.39L3315.35 1266.69L3214.7 1233.69L3119.15 1111.72L3026.04 1086.53L2932.02 1059.47L2838.08 1031.36L2742.05 1001.49L2645.33 970.901L2545.52 938.922L2444.14 906.688L2338.41 873.798L2230.25 841.455L2116.58 809.549L1999.52 779.175L1876.08 750.77L1748.45 725.354L1613.93 703.804L1474.67 687.14L1328.48 676.712L1177.56 673.576L1020.43 679.629L859.334 696.147L693.752 725.537L526.165 769.366L396.565 816.441" stroke="#F2F2F7" stroke-linecap="round" stroke-linejoin="round"/>
<path d="M2904.43 1293.39L2896.95 1264.11L2782.41 1214.51L2752.37 1136.45L2706.4 1054.69L2645.33 970.901L2566.77 885.248L2474.76 801.782L2472.57 799.85L2364.48 718.281L2360.83 715.509L2238.31 637.112L2234.41 634.596L2106.45 566.045L2097.51 561.231L2092.05 558.314L1937.51 488.887L1770.18 427.738L1594.32 376.725L1409.92 337.381L1221.52 311.054L1029.69 299.276L966.295 300.443L838.845 302.777" stroke="#F2F2F7" stroke-linecap="round" stroke-linejoin="round"/>
<path d="M3088.75 1293.39L3076.31 1266.66L2969.54 1223.45L2861.19 1179.69L2752.37 1136.45L2640.89 1093.05L2527.98 1050.68L2411.18 1008.93L2292.22 969.005L2168.28 930.864L2041.37 895.64L1908.82 863.807L1772.69 836.386L1630.74 814.435L1485.02 798.865L1333.88 791.244L1179.41 792.666L1020.91 805.137L860.573 829.969L698.71 869.678L538.086 925.978L502.287 943.261" stroke="#F2F2F7" stroke-linecap="round" stroke-linejoin="round"/>
<path d="M2251.69 1293.39L2262.08 1267.82L2283.22 1209.19L2297.91 1150.38L2306.01 1091.12L2303.93 1030.59L2292.22 969.005L2267.22 905.704L2230.25 841.455L2177.83 776.075L2112.1 710.733L2029.93 645.864L1935.94 584.021L1934.19 582.854L1933.5 582.49L1825.05 524.111L1822.38 522.689L1821.58 522.325L1702.48 468.869L1698.03 466.863L1577.73 423.362L1564.64 418.622L1559.32 416.726L1432.13 380.007L1417.94 375.923L1410.25 373.699L1276.13 345.038L1257.98 341.173L1249.59 339.386L1200.16 335.12L1183.86 332.786L1104.68 321.41L1096.77 318.711L1085.07 313.679L1044.93 312.44L1002.5 307.882L973.841 304.6" stroke="#F2F2F7" stroke-linecap="round" stroke-linejoin="round"/>
<path d="M3581.59 888.967L3561.14 870.735L3316.81 685.682L3249.84 699.027L3001.58 539.608L2945.8 558.606L2696.85 423.872L2439.76 308.866L2179.72 215.008L1919.76 142.992L1664.68 93.4383L1417.83 66.6375L1183.86 62.6265L966.513 81.5511L770.601 123.193L600.644 187.697L461.967 274.553L360.146 383.835L341.189 425.987L329.961 450.965L319.862 473.463L303.858 509.088L301.234 514.886L300.504 526.955" stroke="#F2F2F7" stroke-linecap="round" stroke-linejoin="round"/>
<path d="M301.233 514.886L300.869 491.987L294.744 467.046L346.766 331.838L333.132 303.214L315.086 273.533L292.739 242.32L266.6 210.487L236.816 177.451L203.933 144.305L168.17 110.248L129.964 76.5559L89.6445 42.353L47.4288 8.95221L3.60899 -24.5944L-41.9242 -56.7554L-88.8426 -88.6611L-137.547 -118.707L-187.71 -148.06L-240.134 -175.044L-294.343 -200.933L-351.433 -223.905L-410.856 -245.309L-473.888 -263.322" stroke="#F2F2F7" stroke-linecap="round" stroke-linejoin="round"/>
<path d="M3581.59 288.191L3563.51 277.543L3190.38 92.8183L2817.81 -59.3811L2453.72 -178.909L2097.7 -268.245L1756.58 -327.936L1430.12 -359.514L1124.73 -363.744L841.507 -341.173L587.192 -292.639L365.104 -217.779L182.971 -117.541L47.4287 8.95182L-32.2269 160.386L-45.3875 337.563L4.11938 491.585L19.1391 538.332L122.054 685.426L176.044 762.547L318.295 895.166L435.062 1003.97L437.687 1006.42L612.127 1125.11L766.918 1230.41L821.675 1267.68L870.562 1293.39" stroke="#F2F2F7" stroke-linecap="round" stroke-linejoin="round"/>
<path d="M3581.59 869.203L3561.14 870.735L3483.38 876.204L3249.84 699.027L3183.64 711.644L2945.8 558.606L2890.46 576.582L2651.35 446.844L2605.78 468.467L2367.87 361.155L2124.97 272.548L1880.49 203.887L1638.65 155.864L1403 129.136L1177.66 123.995L966.586 140.768L774.137 179.529L623.392 233.678L604.763 240.351L511.218 295.119L466.669 321.227L463.315 323.16L458.467 344.236L450.155 362.941L440.421 381.538L422.266 390.508L408.231 401.812L383.805 417.564L366.781 422.195L355.042 427.993L344.105 447.865L338.673 458.185L334.627 465.149" stroke="#F2F2F7" stroke-linecap="round" stroke-linejoin="round"/>
<path d="M1541.75 1293.39L1542.4 1281.35L1553.3 1203.1L1568.73 1129.44L1585.53 1060.16L1602.63 994.493L1616.7 932.067L1627.2 872.121L1630.74 814.435L1627.49 758.354L1613.93 703.804L1590.96 650.531L1555.13 598.679L1508.1 548.287L1446.63 499.899L1373.07 453.918L1284.55 411.219L1183.94 372.459L1174.24 369.614L1069.03 338.912L1054.26 335.703L943 311.272" stroke="#F2F2F7" stroke-linecap="round" stroke-linejoin="round"/>
<path d="M1674.19 1293.39L1675.65 1282.99L1691.91 1209.56L1710.46 1140.38L1730.08 1074.68L1747.54 1012.03L1762.16 951.758L1770.54 893.416L1772.69 836.386L1765.11 780.488L1748.45 725.354L1719.29 671.06L1679 617.641L1624.36 565.461L1557.46 514.995L1475.36 466.973L1380.91 422.086L1373.8 419.424L1271.57 381.538L1261.29 378.512L1150.76 346.132L1141.39 344.126L1016.49 317.435L993.017 312.257L965.638 306.569" stroke="#F2F2F7" stroke-linecap="round" stroke-linejoin="round"/>
<path d="M2808.22 1293.39L2799.4 1289.3L2679.13 1236.03L2666.99 1166.31L2640.89 1093.05L2601.37 1017.32L2545.52 938.922L2474.83 859.504L2388.91 781.326L2386.79 779.43L2286.61 702.929L2283.88 700.814L2168.31 627.231L2164.05 624.532L2035.36 555.251L2030.66 552.735L1888.62 489.471L1882.46 486.736L1723.44 428.467L1552.98 379.423L1380.21 342.194L1375.44 341.173L1190.83 315.32L1003.55 302.922L969.758 305.584L962.686 305.949L951.53 304.782" stroke="#F2F2F7" stroke-linecap="round" stroke-linejoin="round"/>
<path d="M2100.32 1293.39L2103.2 1285.98L2127.59 1225.31L2148.52 1165.98L2165.47 1107.49L2174.95 1049.04L2177.1 990.372L2168.28 930.864L2149.28 870.699L2116.58 809.549L2071.67 748.071L2011.22 686.375L1937.58 625.517L1847.79 566.117L1844.44 564.258L1746.81 510.51L1744.99 509.489L1743.49 508.833L1628.99 457.711L1626.73 456.726L1624.25 455.815L1511.89 414.684L1501.57 410.928L1496.69 409.141L1373.94 374.136L1358.16 369.614L1353.16 368.192L1351.34 367.828L1250.14 342.704L1238.76 337.818L1158.49 321.665L1088.53 312.403" stroke="#F2F2F7" stroke-linecap="round" stroke-linejoin="round"/>
<path d="M2799.58 1293.39L2799.4 1289.3L2782.41 1214.51L2666.99 1166.31L2548.51 1119.05L2428.31 1073.87L2303.93 1030.59L2177.1 990.372L2045.38 953.435L1910.57 920.836L1770.54 893.416L1627.2 872.121L1478.93 858.301L1327.72 852.977L1172.71 857.973L1016.02 874.527L857.875 904.865L700.751 950.627L570.787 1004.37" stroke="#F2F2F7" stroke-linecap="round" stroke-linejoin="round"/>
<path d="M1411.16 1293.39L1411.09 1292.04L1415.9 1207.91L1426.11 1129.3L1440.07 1055.39L1454.58 986.07L1468.65 920.435L1478.93 858.301L1485.02 798.865L1483.49 742.018L1474.67 687.14L1455.09 634.304L1425.82 583.146L1383.49 534.102L1329.87 487.1L1261.88 442.906L1181.86 401.775L1087.25 364.874L1074.53 361.009L980.841 332.567L967.571 329.687L860.573 306.459" stroke="#F2F2F7" stroke-linecap="round" stroke-linejoin="round"/>
<path d="M2106.01 -372.24L2103.57 -372.823L1750.2 -431.274L1744.48 -432.222L1403.91 -463.253L1387.03 -497.164L1367.38 -530.747L1036.51 -532.899L1008.55 -564.95L696.486 -539.608L660.504 -569.691L370.645 -517.073L326.898 -544.604L276.808 -570.055L11.9209 -488.923L-45.2416 -510.692L-279.251 -401.228L-343.158 -418.548L-410.673 -433.827L-610.05 -291.254L-683.727 -300.698L-762.325 -305.511L-916.059 -127.823L-1011.61 83.1556L-1033.3 327.645L-961.009 610.166L-772.022 930.134L-434.844 1290.32L-430.87 1293.39" stroke="#F2F2F7" stroke-linecap="round" stroke-linejoin="round"/>
<path d="M384.28 820.889L365.323 796.605L351.433 778.81L335.903 758.938L319.389 737.825L272.652 677.952L258.544 644.988L228.869 575.78L191.721 489.07L183.263 322.175L236.816 177.451L343.96 56.6467L496.928 -40.5656L688.247 -112.982L912.741 -160.859L1163.88 -183.357L1438.43 -180.331L1730.33 -151.087L2037.76 -94.9694L2354.45 -11.5769L2679.13 100.184L3004.9 240.096L3330.16 409.397L3381.48 385.148L3581.59 508.505" stroke="#F2F2F7" stroke-linecap="round" stroke-linejoin="round"/>
<path d="M345.199 755.947L340.569 744.753L322.305 691.334L321.94 690.422L293.833 632.591L275.605 600.284L252.747 546.427L243.196 383.58L292.739 242.32L393.685 124.25L538.633 29.2624L720.693 -41.5501L934.615 -88.4424L1174.24 -110.503L1435.99 -107.732L1714.15 -79.5088L2006.3 -25.3967L2306.52 54.8235L2612.85 161.771L2918.86 295.046L3222.36 455.158L3276.05 432.223L3581.59 623.475" stroke="#F2F2F7" stroke-linecap="round" stroke-linejoin="round"/>
<path d="M296.786 628.981L289.094 610.129L274.22 573.775L265.689 412.569L315.086 273.533L414.282 156.703L556.277 63.3195L734.837 -6.76377L943.728 -52.6716L1178.58 -74.5498L1433.62 -71.6327L1705.8 -43.8474L1989.5 9.20733L2282.35 87.896L2578.44 192.109L2875.44 322.175L3166.98 476.964L3222.36 455.158L3516.15 640.321L3581.59 689.183" stroke="#F2F2F7" stroke-linecap="round" stroke-linejoin="round"/>
<path d="M297.114 629.783L297.478 626.355L298.864 588.871L299.301 567.211L299.957 535.67L300.468 527.393L300.504 526.955L301.379 525.424L310.748 507.484L315.961 495.669L331.564 464.165L340.423 452.095L349.245 446.334L355.042 427.993L359.854 406.917L360.146 383.835L355.771 358.602L346.766 331.838L445.452 218.545L584.166 128.152L757.112 60.5847L958.457 16.5001L1183.72 -4.13837L1427.6 -0.893107L1686.66 26.2359L1955.7 77.4674L2231.89 152.801L2509.76 251.873L2544.68 222.338L2578.44 192.109L2612.85 161.771L2645.7 130.887L2679.13 100.184L2710.19 68.8619L2741.43 37.7584L2769.1 5.77976L2796.04 -26.126L2817.81 -59.3809L2837.49 -92.891L2850.14 -128.297L2859.18 -164.36L2859.11 -202.829L2853.64 -242.356" stroke="#F2F2F7" stroke-linecap="round" stroke-linejoin="round"/>
<path d="M365.942 417.418L369.26 414.209L387.816 396.269L418.22 366.807L463.316 323.16L464.519 299.932L461.967 274.553L455.587 247.461L445.452 218.545L431.599 188.39L414.283 156.703L393.685 124.25L370.208 90.5941L343.96 56.6464L315.524 21.8236L284.828 -12.8534L252.529 -48.1138L218.333 -82.7178L182.971 -117.541L145.823 -151.306L107.617 -184.889L67.3702 -216.977L25.8837 -248.555L-18.2277 -278.163L-64.0161 -306.897L-113.195 -333.223" stroke="#F2F2F7" stroke-linecap="round" stroke-linejoin="round"/>
<path d="M679.242 1101.11L643.078 1068.84L566.959 1005.94L543.992 990.701" stroke="#F2F2F7" stroke-linecap="round" stroke-linejoin="round"/>
<path d="M870.125 1231.18L812.415 1192.67L800.64 1188.48L726.052 1142.86L713.475 1131.05L694.044 1114.2L679.243 1101.11L642.787 1068.99L570.313 1004.56L543.044 980.382L500.829 943.954L496.891 940.417L479.794 925.394L472.94 918.247L465.539 910.481L435.208 886.123L429.959 879.414L388.764 819.285L353.803 766.996L352.636 765.501L346.949 754.89L340.496 743.222L305.098 704.461L272.652 677.952L232.697 650.276L187.31 622.746L135.615 594.377L110.643 528.523L61.3916 398.676L62.8863 225.328L129.965 76.5559L252.529 -48.1135L421.72 -147.222L631.012 -221.498L872.859 -269.849L1143.62 -292.493L1436.65 -288.628L1750.35 -257.743L2078.34 -199.11L2420.18 -111.414L2769.1 5.77989L3124.76 154.515L3479.33 334.354L3524.54 307.371L3563.51 277.544L3581.59 261.901" stroke="#F2F2F7" stroke-linecap="round" stroke-linejoin="round"/>
<path d="M346.912 751.499L344.543 745.665L343.559 741.909L324.128 690.604L323.836 689.875L300.614 630.148L300.176 628.981" stroke="#F2F2F7" stroke-linecap="round" stroke-linejoin="round"/>
</g>
</g>
</g>
<defs>
<filter id="filter0_f_1668_12160" x="-4" y="-1826" width="1448" height="3122" filterUnits="userSpaceOnUse" color-interpolation-filters="sRGB">
<feFlood flood-opacity="0" result="BackgroundImageFix"/>
<feBlend mode="normal" in="SourceGraphic" in2="BackgroundImageFix" result="shape"/>
<feGaussianBlur stdDeviation="2" result="effect1_foregroundBlur_1668_12160"/>
</filter>
<clipPath id="clip0_1668_12160">
<rect width="1440" height="998" fill="white"/>
</clipPath>
<clipPath id="clip1_1668_12160">
<rect width="1440" height="3114" fill="white" transform="translate(0 -1822)"/>
</clipPath>
</defs>
</svg>
