<svg width="12" height="13" viewBox="0 0 12 13" fill="none" xmlns="http://www.w3.org/2000/svg">
<path d="M10.3122 8.7498V2.18726H3.74933" stroke="#C4C6CD"/>
<path d="M8.43713 4.06226H1.87436V10.6248H8.43713V4.06226Z" stroke="#C4C6CD"/>
</svg>
