<svg width="176" height="44" viewBox="0 0 176 44" fill="none" xmlns="http://www.w3.org/2000/svg">
<g id="logo">
<g id="CasterScan">
<path d="M17.0323 27.1461V14.5583L20.0792 11.4783H29.1403L32.1342 14.5047V17.3704H28.531V15.8438L27.2857 14.5851H21.9868L20.6356 15.951V25.7534L21.9868 27.1193H27.2857L28.531 25.8605V24.3339H32.1342V27.1997L29.1403 30.2261H20.0792L17.0323 27.1461Z" fill="url(#paint0_linear_1657_98489)"/>
<path d="M34.1286 27.7621V24.7089L36.5661 22.2449H43.2692V20.5576L42.4479 19.7273H38.4737L37.6788 20.5576V21.3075H34.2345V19.7809L37.0695 16.8884H43.8786L46.7135 19.7809V30.2261H43.5606V28.3245L41.6 30.2261H36.5661L34.1286 27.7621ZM41.3616 27.4943L43.2692 25.6463V24.7624H38.2882L37.5729 25.4856V26.8247L38.2352 27.4943H41.3616Z" fill="url(#paint1_linear_1657_98489)"/>
<path d="M49.1032 27.6014V25.9677H52.5475V26.7176L53.1304 27.3336H57.4225L58.0054 26.7176V25.5659L57.396 24.9231H51.6997L49.2092 22.3788V19.4595L51.7262 16.8884H58.6148L61.1847 19.5131V21.1468H57.7404V20.3969L57.1576 19.7809H53.2364L52.6535 20.3969V21.4414L53.2629 22.0842H58.9592L61.4497 24.6285V27.655L58.9327 30.2261H51.6732L49.1032 27.6014Z" fill="url(#paint2_linear_1657_98489)"/>
<path d="M65.1625 27.4943V19.8612H62.7779V16.8884H65.2155V12.5496H68.6598V16.8884H72.6869V19.888H68.6598V26.3426L69.5606 27.2264H72.6869V30.2261H67.8914L65.1625 27.4943Z" fill="url(#paint3_linear_1657_98489)"/>
<path d="M74.2876 27.4943V19.6738L77.0165 16.8884H84.4615L87.217 19.6738V24.7357H77.7849V26.4498L78.6327 27.3336H82.9513L83.7462 26.5033V25.807H87.1905V27.5478L84.5675 30.2261H76.9635L74.2876 27.4943ZM83.7197 22.2717V20.7183L82.8188 19.7809H78.6857L77.7849 20.7183V22.2717H83.7197Z" fill="url(#paint4_linear_1657_98489)"/>
<path d="M89.9991 16.8884H93.2314V19.1113L95.351 16.8884H99.1133V19.888H96.0664L93.4964 22.5663V30.2261H89.9991V16.8884Z" fill="url(#paint5_linear_1657_98489)"/>
<path d="M100.575 27.3336V24.6553H104.125V26.2355L105 27.1193H110.484L111.385 26.2087V23.1019L110.511 22.2181H103.49L100.628 19.3256V14.3708L103.49 11.4783H111.862L114.723 14.3708V17.0758H111.173V15.4689L110.299 14.5851H105.053L104.178 15.4689V18.2275L105.053 19.1113H112.074L114.935 22.0038V27.28L112.021 30.2261H103.437L100.575 27.3336Z" fill="url(#paint6_linear_1657_98489)"/>
<path d="M117.315 27.4943V19.6202L119.991 16.8884H127.251L129.98 19.6738V22.1378H126.483V20.8254L125.555 19.888H121.74L120.813 20.8254V26.2891L121.74 27.2264H125.555L126.483 26.2891V24.9767H129.98V27.4407L127.251 30.2261H119.991L117.315 27.4943Z" fill="url(#paint7_linear_1657_98489)"/>
<path d="M131.957 27.7621V24.7089L134.394 22.2449H141.098V20.5576L140.276 19.7273H136.302L135.507 20.5576V21.3075H132.063V19.7809L134.898 16.8884H141.707L144.542 19.7809V30.2261H141.389V28.3245L139.428 30.2261H134.394L131.957 27.7621ZM139.19 27.4943L141.098 25.6463V24.7624H136.117L135.401 25.4856V26.8247L136.064 27.4943H139.19Z" fill="url(#paint8_linear_1657_98489)"/>
<path d="M147.594 16.8884H150.826V19.1113L153.025 16.8884H157.291L160.232 19.8612V30.2261H156.735V20.8254L155.834 19.888H153.608L151.091 22.4591V30.2261H147.594V16.8884Z" fill="url(#paint9_linear_1657_98489)"/>
</g>
</g>
<defs>
<linearGradient id="paint0_linear_1657_98489" x1="17.0323" y1="20.8522" x2="160.232" y2="20.8522" gradientUnits="userSpaceOnUse">
<stop stop-color="#9F82DD"/>
<stop offset="1" stop-color="#D6CAF6"/>
</linearGradient>
<linearGradient id="paint1_linear_1657_98489" x1="17.0323" y1="20.8522" x2="160.232" y2="20.8522" gradientUnits="userSpaceOnUse">
<stop stop-color="#9F82DD"/>
<stop offset="1" stop-color="#D6CAF6"/>
</linearGradient>
<linearGradient id="paint2_linear_1657_98489" x1="17.0323" y1="20.8522" x2="160.232" y2="20.8522" gradientUnits="userSpaceOnUse">
<stop stop-color="#9F82DD"/>
<stop offset="1" stop-color="#D6CAF6"/>
</linearGradient>
<linearGradient id="paint3_linear_1657_98489" x1="17.0323" y1="20.8522" x2="160.232" y2="20.8522" gradientUnits="userSpaceOnUse">
<stop stop-color="#9F82DD"/>
<stop offset="1" stop-color="#D6CAF6"/>
</linearGradient>
<linearGradient id="paint4_linear_1657_98489" x1="17.0323" y1="20.8522" x2="160.232" y2="20.8522" gradientUnits="userSpaceOnUse">
<stop stop-color="#9F82DD"/>
<stop offset="1" stop-color="#D6CAF6"/>
</linearGradient>
<linearGradient id="paint5_linear_1657_98489" x1="17.0323" y1="20.8522" x2="160.232" y2="20.8522" gradientUnits="userSpaceOnUse">
<stop stop-color="#9F82DD"/>
<stop offset="1" stop-color="#D6CAF6"/>
</linearGradient>
<linearGradient id="paint6_linear_1657_98489" x1="17.0323" y1="20.8522" x2="160.232" y2="20.8522" gradientUnits="userSpaceOnUse">
<stop stop-color="#9F82DD"/>
<stop offset="1" stop-color="#D6CAF6"/>
</linearGradient>
<linearGradient id="paint7_linear_1657_98489" x1="17.0323" y1="20.8522" x2="160.232" y2="20.8522" gradientUnits="userSpaceOnUse">
<stop stop-color="#9F82DD"/>
<stop offset="1" stop-color="#D6CAF6"/>
</linearGradient>
<linearGradient id="paint8_linear_1657_98489" x1="17.0323" y1="20.8522" x2="160.232" y2="20.8522" gradientUnits="userSpaceOnUse">
<stop stop-color="#9F82DD"/>
<stop offset="1" stop-color="#D6CAF6"/>
</linearGradient>
<linearGradient id="paint9_linear_1657_98489" x1="17.0323" y1="20.8522" x2="160.232" y2="20.8522" gradientUnits="userSpaceOnUse">
<stop stop-color="#9F82DD"/>
<stop offset="1" stop-color="#D6CAF6"/>
</linearGradient>
</defs>
</svg>
