<svg width="12" height="11" viewBox="0 0 12 11" fill="none" xmlns="http://www.w3.org/2000/svg">
<g clip-path="url(#clip0_4375_588)">
<rect width="12" height="12" transform="translate(0 -0.5)" fill="white" fill-opacity="0.01"/>
<mask id="mask0_4375_588" style="mask-type:alpha" maskUnits="userSpaceOnUse" x="0" y="-1" width="12" height="13">
<rect width="12" height="12" transform="translate(0 -0.5)" fill="white" fill-opacity="0.01"/>
<path d="M5.68765 3.14048L2.38993 7.26264C2.23278 7.45906 2.37263 7.75004 2.62419 7.75004H9.37581C9.62736 7.75004 9.76722 7.45906 9.61007 7.26264L6.31235 3.14048C6.15222 2.94032 5.84778 2.94032 5.68765 3.14048Z" fill="#090A0B"/>
</mask>
<g mask="url(#mask0_4375_588)">
<rect y="-0.5" width="12" height="12" fill="#626576"/>
</g>
</g>
<defs>
<clipPath id="clip0_4375_588">
<rect width="12" height="12" fill="white" transform="translate(0 -0.5)"/>
</clipPath>
</defs>
</svg>
