<svg width="12" height="11" viewBox="0 0 12 11" fill="none" xmlns="http://www.w3.org/2000/svg">
<rect width="12" height="11" fill="white" fill-opacity="0.01"/>
<g clip-path="url(#clip0_4375_595)">
<rect width="12" height="12" transform="translate(0 -0.5)" fill="white" fill-opacity="0.01"/>
<mask id="mask0_4375_595" style="mask-type:alpha" maskUnits="userSpaceOnUse" x="0" y="-1" width="12" height="13">
<rect width="12" height="12" transform="translate(0 -0.5)" fill="white" fill-opacity="0.01"/>
<path d="M5.68765 7.85957L2.38993 3.73741C2.23278 3.54098 2.37263 3.25 2.62419 3.25H9.37581C9.62736 3.25 9.76722 3.54098 9.61007 3.73741L6.31235 7.85957C6.15222 8.05973 5.84778 8.05973 5.68765 7.85957Z" fill="#090A0B"/>
</mask>
<g mask="url(#mask0_4375_595)">
<rect y="-0.5" width="12" height="12" fill="#626576"/>
</g>
</g>
<defs>
<clipPath id="clip0_4375_595">
<rect width="12" height="12" fill="white" transform="translate(0 -0.5)"/>
</clipPath>
</defs>
</svg>
