<svg width="24" height="24" viewBox="0 0 24 24" fill="none" xmlns="http://www.w3.org/2000/svg">
<path d="M20.3169 12.7221C20.0173 11.4364 19.37 10.2578 18.4455 9.31536C17.8938 8.72038 17.2988 8.15896 16.7566 7.55438C15.3588 5.94715 14.39 4.01274 13.94 1.93083L13.8392 1.47983L13.7289 1C12.4291 1.81618 11.3188 2.90065 10.4722 4.18084C9.62563 5.46102 9.06241 6.90734 8.82024 8.42289C7.86059 8.10141 7.14565 6.7243 7.23202 5.29442C7.20024 5.31643 7.17125 5.34223 7.14566 5.37121C5.97374 7.17468 4.96835 9.08105 4.14194 11.0667C3.41924 12.8912 3.32851 14.9052 3.88425 16.7872C4.44 18.6693 5.61017 20.3109 7.20802 21.4502C8.45086 22.3478 9.92402 22.8721 11.4545 22.9616C11.5504 22.9616 11.6464 22.9904 11.7424 23H12.2798C12.8526 22.9483 13.4216 22.8602 13.9832 22.7361C17.3036 21.8244 19.362 19.6556 20.2209 16.34C20.3361 15.889 20.36 15.4091 20.432 14.9437C20.432 14.8717 20.4608 14.8046 20.4752 14.7326V13.9505C20.4368 13.5282 20.4032 13.1204 20.3169 12.7221ZM13.0091 20.5145C12.6568 20.6457 12.2811 20.7021 11.9058 20.6801C11.5305 20.6581 11.1639 20.5582 10.8294 20.3866C10.4949 20.2151 10.1998 19.9757 9.96295 19.6838C9.72607 19.3919 9.55261 19.0538 9.45362 18.6912C9.29603 18.1122 9.35753 17.4954 9.62635 16.959C10.1802 15.8773 10.8704 14.8711 11.68 13.9648L12.0351 13.5618C12.9342 14.6114 13.7146 15.7572 14.3622 16.9782C14.5325 17.2946 14.6326 17.644 14.6556 18.0027C14.6787 18.3613 14.6241 18.7206 14.4957 19.0563C14.3673 19.3919 14.168 19.6959 13.9115 19.9476C13.6549 20.1992 13.3472 20.3925 13.0091 20.5145Z" fill="url(#paint0_linear_4142_25475)"/>
<path d="M13.3782 20.9475C12.8901 21.1164 12.3695 21.189 11.8495 21.1607C11.3295 21.1323 10.8216 21.0037 10.3581 20.783C9.89464 20.5622 9.48578 20.2542 9.15757 19.8785C8.82937 19.5028 8.58903 19.0678 8.45187 18.6011C8.23353 17.856 8.31874 17.0622 8.6912 16.3718C9.45861 14.9799 10.4149 13.6849 11.5366 12.5187L12.0286 12C13.2744 13.3508 14.3557 14.8253 15.253 16.3966C15.4889 16.8038 15.6276 17.2535 15.6595 17.715C15.6914 18.1765 15.6158 18.639 15.4379 19.0709C15.26 19.5028 14.9839 19.8941 14.6284 20.2179C14.273 20.5418 13.8465 20.7906 13.3782 20.9475Z" fill="#FFFB93"/>
<defs>
<linearGradient id="paint0_linear_4142_25475" x1="12" y1="1" x2="12" y2="23" gradientUnits="userSpaceOnUse">
<stop stop-color="#FF2D46"/>
<stop offset="1" stop-color="#FD9270"/>
</linearGradient>
</defs>
</svg>
