<svg width="14" height="16" viewBox="0 0 14 16" fill="none" xmlns="http://www.w3.org/2000/svg">
<g clip-path="url(#clip0_2054_5547)">
<path d="M4.10517 10.1912C3.95225 10.1912 3.78658 10.1399 3.65914 10.0374C3.41701 9.85794 3.30231 9.57594 3.35329 9.28113L3.82481 6.53805L1.83678 4.5897C1.63288 4.38461 1.55641 4.0898 1.64562 3.8078C1.73483 3.5258 1.97696 3.32071 2.25732 3.28226L4.99724 2.8849L6.22064 0.385367C6.47552 -0.140175 7.32936 -0.140175 7.59698 0.385367L8.82038 2.8849L11.5603 3.28226C11.8534 3.32071 12.0828 3.5258 12.172 3.8078C12.2612 4.0898 12.1847 4.38461 11.9808 4.5897L10.0056 6.53805L10.4771 9.28113C10.5281 9.57594 10.4134 9.85794 10.1712 10.0374C9.94183 10.204 9.63598 10.2297 9.36836 10.1015L6.92155 8.80686L4.47474 10.1015C4.36005 10.1656 4.24536 10.1912 4.11792 10.1912H4.10517ZM6.90881 7.65323L9.38111 8.96067L8.90959 6.19196L10.9104 4.2308L8.14496 3.83344L6.90881 1.32109L5.67266 3.83344L2.90726 4.2308L4.90803 6.19196L4.43651 8.96067L6.90881 7.65323Z" fill="#F5F5F5"/>
<path d="M9.90075 11.5655C7.72784 10.8019 5.52432 10.8019 3.3514 11.625C2.19863 12.0613 1.39272 12.8745 1.06627 14.0843C0.780626 15.1355 1.45392 15.8098 2.43327 15.7999C5.24888 15.7602 8.06449 15.7701 10.8699 15.7999C11.6248 15.7999 12.1451 15.5619 12.4001 14.8479V14.3521C12.0839 12.9835 11.2269 12.0415 9.89055 11.5754L9.90075 11.5655ZM11.0637 14.9867C9.60491 14.9867 8.1461 14.9867 6.67708 14.9867H2.40266C1.85178 14.9867 1.69876 14.7785 1.84158 14.2529C2.07621 13.4001 2.6475 12.8249 3.43301 12.4381C4.25933 12.0315 5.14686 11.8729 6.04459 11.8233C7.31978 11.7539 8.58476 11.8233 9.76813 12.3489C10.6863 12.7455 11.3392 13.3802 11.5534 14.3719C11.6452 14.7785 11.482 14.9768 11.0535 14.9768L11.0637 14.9867Z" fill="#F5F5F5"/>
</g>
<defs>
<clipPath id="clip0_2054_5547">
<rect width="13.5824" height="16" fill="white" transform="translate(0.208809)"/>
</clipPath>
</defs>
</svg>
